0.999945 0.00911069 -4.8314 -0.00910908 0.999998 6.60075
0.999945 0.00915373 -4.87421 -0.00915213 0.999997 6.63114
0.999945 0.00914862 -4.87425 -0.00914783 0.999999 6.63115
0.999944 0.00914717 -4.87876 -0.00914692 1 6.6336
0.999942 0.0091507 -4.88723 -0.00914913 1 6.63997
0.999943 0.00915045 -4.88723 -0.00914891 1 6.63997
0.999943 0.00915039 -4.88723 -0.00914884 1 6.63997
0.999943 0.00915039 -4.88723 -0.00914884 1 6.63997
0.999943 0.00915039 -4.88723 -0.00914885 1 6.63997
0.999944 0.009149 -4.88729 -0.00914925 1 6.64
0.999945 0.00914845 -4.88729 -0.00914915 1 6.64
0.999946 0.00918767 -4.93991 -0.00919196 1 6.672
0.999946 0.00918744 -4.93992 -0.00919255 1 6.67201
0.999945 0.00917732 -4.94564 -0.0091857 1.00001 6.67642
0.999945 0.00916008 -4.97834 -0.00917716 1.00002 6.67655
