0.999967 -0.00654774 2.50095 0.0065356 0.999988 -2.48403
0.999967 -0.00654774 2.50095 0.0065356 0.999988 -2.48403
0.999967 -0.00654862 2.50089 0.00653615 0.999988 -2.48415
0.999967 -0.00654866 2.50089 0.00653618 0.999988 -2.48415
0.999967 -0.00654866 2.50089 0.00653618 0.999988 -2.48415
0.999967 -0.00655051 2.50088 0.00653773 0.999988 -2.4842
0.999967 -0.00655051 2.50088 0.00653773 0.999988 -2.4842
0.999967 -0.00655051 2.50088 0.00653773 0.999988 -2.4842
0.999967 -0.00655051 2.50088 0.00653773 0.999988 -2.4842
0.999967 -0.00655051 2.50088 0.00653773 0.999988 -2.4842
0.999967 -0.00655087 2.50076 0.00653811 0.999988 -2.48432
0.999967 -0.00655087 2.50076 0.00653811 0.999988 -2.48432
0.999967 -0.00655087 2.50076 0.00653811 0.999988 -2.48432
0.999967 -0.00655351 2.50078 0.00654082 0.999988 -2.48433
0.999967 -0.00655382 2.5007 0.00654097 0.999988 -2.48444
