1 -0 0 -0 1 0
1 -0 0 -0 1 0
1 -0 0 -0 1 0
1 -0 0 -0 1 0
1 -0 0 -0 1 0
1 -0 0 -0 1 0
1 -0 0 -0 1 0
1 -0 0 -0 1 0
1 -0 0 -0 1 0
1 -0 0 -0 1 0
1 -0 0 -0 1 0
1 -0 0 -0 1 0
0.999851 -0.0167772 7.90429 0.0167814 0.999862 -7.96396
0.999761 -0.021614 10.2699 0.0216126 0.999776 -10.2323
0.999761 -0.021614 10.2699 0.0216126 0.999776 -10.2323
0.999746 -0.0222777 10.5825 0.0222742 0.999765 -10.51
0.999698 -0.0242211 11.5255 0.024223 0.999719 -11.4462
0.999689 -0.0244406 11.6283 0.0244377 0.999723 -11.5582
0.999689 -0.0244406 11.6283 0.0244377 0.999723 -11.5582
0.999689 -0.0244406 11.6283 0.0244377 0.999723 -11.5582
0.999689 -0.0244387 11.6283 0.0244362 0.999722 -11.5582
0.999689 -0.0244387 11.6283 0.0244362 0.999722 -11.5582
0.999689 -0.0244387 11.6283 0.0244362 0.999722 -11.5582
0.999687 -0.024438 11.6283 0.0244379 0.999723 -11.5582
0.999688 -0.0244467 11.6258 0.0244434 0.999724 -11.5629
0.999688 -0.0244467 11.6258 0.0244434 0.999724 -11.5629
0.999688 -0.0244444 11.6258 0.024441 0.999724 -11.5629
0.999688 -0.0244444 11.6258 0.024441 0.999724 -11.5629
0.999689 -0.0244434 11.6255 0.0244381 0.999725 -11.5635
0.999689 -0.0244433 11.6255 0.024438 0.999725 -11.5635
0.999689 -0.0244433 11.6255 0.024438 0.999725 -11.5635
0.999689 -0.0244433 11.6255 0.024438 0.999725 -11.5635
0.99969 -0.0244383 11.6243 0.0244298 0.999727 -11.5654
0.99969 -0.0244375 11.6243 0.0244289 0.999727 -11.5654
0.99969 -0.0244375 11.6243 0.0244289 0.999727 -11.5654
0.99969 -0.0244336 11.6238 0.0244249 0.999728 -11.5662
0.999689 -0.0244332 11.6238 0.0244244 0.999729 -11.5662
0.999691 -0.0244351 11.6237 0.0244246 0.999729 -11.5664
0.99969 -0.0244352 11.6237 0.0244247 0.999729 -11.5664
0.99969 -0.0244352 11.6237 0.0244247 0.999729 -11.5664
0.99969 -0.0244352 11.6237 0.0244247 0.999729 -11.5664
0.99969 -0.0244351 11.6237 0.0244246 0.999729 -11.5664
0.999691 -0.024452 11.6127 0.0244387 0.99973 -11.6022
0.999682 -0.024598 11.6839 0.0245884 0.999729 -11.65
0.999681 -0.0245936 11.6831 0.0245851 0.999728 -11.6507
0.999684 -0.0245732 11.669 0.0245601 0.999731 -11.6631
0.999684 -0.0245732 11.669 0.0245601 0.999731 -11.6631
0.999684 -0.0245732 11.669 0.0245601 0.999731 -11.6631
0.999684 -0.0245732 11.669 0.0245601 0.999731 -11.6631
0.999684 -0.0245732 11.669 0.0245601 0.999731 -11.6631
0.999684 -0.0245732 11.669 0.0245601 0.999731 -11.6631
0.999684 -0.0245732 11.669 0.0245601 0.999731 -11.6631
0.999684 -0.0245732 11.669 0.0245601 0.999731 -11.6631
0.999684 -0.0245732 11.669 0.0245601 0.999731 -11.6631
0.999684 -0.0245732 11.669 0.0245601 0.999731 -11.6631
0.999684 -0.0245732 11.669 0.0245601 0.999731 -11.6631
0.999684 -0.0245732 11.669 0.0245601 0.999731 -11.6631
0.999684 -0.0245732 11.669 0.0245601 0.999731 -11.6631
0.999684 -0.0245732 11.669 0.0245601 0.999731 -11.6631
0.999684 -0.0245732 11.669 0.0245601 0.999731 -11.6631
0.999684 -0.0245732 11.669 0.0245601 0.999731 -11.6631
0.999684 -0.0245727 11.6689 0.0245589 0.999732 -11.6634
0.999684 -0.0245727 11.6689 0.0245589 0.999732 -11.6634
0.999689 -0.0245787 11.6691 0.0245552 0.999737 -11.6635
0.999689 -0.0245787 11.6691 0.0245552 0.999737 -11.6635
0.999689 -0.0245808 11.6692 0.0245606 0.999733 -11.6634
