1 3.21028e-07 8.63157e-05 -3.56657e-07 1 0.000112731
1 3.21028e-07 8.63157e-05 -3.56657e-07 1 0.000112731
1 3.21028e-07 8.63157e-05 -3.56657e-07 1 0.000112731
1 3.21028e-07 8.63157e-05 -3.56657e-07 1 0.000112731
