14 0.998566 30.4398 519.739 894.283
10 0.991802 -29.9854 255.412 788.493
7 1.00144 18.8673 535.521 606.276
8 0.997308 -49.6818 215.445 454.106
2 0.998767 12.6685 530.885 304.308
0 0.999945 -2.21826 371.024 157.623
