347.134 462.69 0.80493 0.25614 0.00342361 0.00612721
377.769 478.036 0.91905 0.46038 0.00272159 0.00597329
411.428 500.019 1.00977 0.65949 0.000776706 0.0182484
445.95 542.278 1.03566 1.26777 -0.00176581 -0.0162126
