14 0.984129 0.424526 214.5 856.094
0 0.975984 27.0698 519.44 595.278
13 0.977465 3.29952 451.007 394.454
10 0.97464 -53.0107 224.778 471.613
11 0.953975 63.215 695.846 220.404
6 0.973818 -16.1914 358.469 164.24
