1 -0 0 -0 1 0
1 -0 0 -0 1 0
1 -0 0 -0 1 0
1 -0 0 -0 1 0
1 -0 0 -0 1 0
1 -0 0 -0 1 0
1 -0 0 -0 1 0
1 -0 0 -0 1 0
1 -0 0 -0 1 0
1 -0 0 -0 1 0
1 -0 0 -0 1 0
1 -0 0 -0 1 0
1 -0 0 -0 1 0
1 -0 0 -0 1 0
1 -0 0 -0 1 0
1 -0 0 -0 1 0
1 -0 0 -0 1 0
1 -0 0 -0 1 0
1 -0 0 -0 1 0
1 -0 0 -0 1 0
1 -0 0 -0 1 0
1 -0 0 -0 1 0
1 -0 0 -0 1 0
1 -0 0 -0 1 0
0.999998 -0.00164134 1.22263 0.00164009 0.999997 -0.9877
0.999998 -0.00164134 1.22263 0.00164009 0.999997 -0.9877
0.999998 -0.00170271 1.24686 0.00170129 0.999997 -1.00133
1.00002 -0.000393846 0.877457 0.000381289 0.999992 1.54038
1.00002 -0.000393233 0.877458 0.000380583 0.999993 1.54038
1.00002 -0.00014831 0.832006 0.000135657 0.999993 1.67977
1.00002 -0.00014831 0.832006 0.000135657 0.999993 1.67977
1.00002 -0.00014823 0.832006 0.000135577 0.999993 1.67977
1.00002 -0.00014823 0.832006 0.000135577 0.999993 1.67977
1.00002 -0.00014823 0.832006 0.000135577 0.999993 1.67977
1.00002 -0.00014823 0.832006 0.000135577 0.999993 1.67977
1.00002 -0.00014823 0.832006 0.000135577 0.999993 1.67977
1.00002 -0.00014823 0.832006 0.000135577 0.999993 1.67977
1.00002 -0.00014823 0.832007 0.000135577 0.999993 1.67977
1.00002 -0.00014823 0.832007 0.000135577 0.999993 1.67977
1.00002 -0.00014823 0.832007 0.000135577 0.999993 1.67977
1.00002 -0.00014823 0.832007 0.000135577 0.999993 1.67977
1.00002 -0.00014823 0.832007 0.000135577 0.999993 1.67977
1.00002 -0.00014823 0.832007 0.000135577 0.999993 1.67977
1.00002 -0.00014823 0.832007 0.000135577 0.999993 1.67977
1.00002 -0.00014823 0.832007 0.000135577 0.999993 1.67978
1.00002 -0.00014823 0.832007 0.000135577 0.999993 1.67978
1.00002 -0.00014823 0.832007 0.000135577 0.999993 1.67978
1.00002 -0.00014823 0.832007 0.000135577 0.999993 1.67978
1.00002 -0.00014823 0.832007 0.000135577 0.999993 1.67978
1.00002 -0.00014823 0.832007 0.000135577 0.999993 1.67978
1.00002 -0.00014823 0.832007 0.000135577 0.999993 1.67978
1.00002 -0.00014823 0.832007 0.000135577 0.999993 1.67978
1.00002 -0.00014823 0.832007 0.000135577 0.999993 1.67978
1.00002 -0.00014823 0.832007 0.000135577 0.999993 1.67978
1.00002 -0.00014823 0.832008 0.000135577 0.999993 1.67978
1.00002 -0.00014823 0.832008 0.000135577 0.999993 1.67978
1.00002 -0.00014823 0.832008 0.000135577 0.999993 1.67978
1.00002 -0.00014823 0.832008 0.000135577 0.999993 1.67978
1.00002 -0.00014823 0.832008 0.000135577 0.999993 1.67978
1.00002 -0.00014823 0.832008 0.000135577 0.999993 1.67978
1.00002 -0.00014823 0.832008 0.000135577 0.999993 1.67978
1.00002 -0.00014823 0.832008 0.000135577 0.999993 1.67978
1.00002 -0.00014823 0.832008 0.000135577 0.999993 1.67978
1.00002 -0.00014823 0.832008 0.000135577 0.999993 1.67978
1.00002 -0.00014823 0.832008 0.000135577 0.999993 1.67978
1.00002 -0.00014823 0.832008 0.000135577 0.999993 1.67978
1.00002 -0.00014823 0.832008 0.000135577 0.999993 1.67978
1.00002 -0.00014823 0.832008 0.000135577 0.999993 1.67978
1.00002 -0.00014823 0.832008 0.000135577 0.999993 1.67978
1.00002 -0.00014823 0.832008 0.000135577 0.999993 1.67978
1.00002 -0.00014823 0.832008 0.000135577 0.999993 1.67978
1.00002 -0.00014823 0.832009 0.000135577 0.999993 1.67978
1.00002 -0.00014823 0.832009 0.000135577 0.999993 1.67978
1.00002 -0.00014823 0.832009 0.000135577 0.999993 1.67978
1.00002 -0.00014823 0.832009 0.000135577 0.999993 1.67978
1.00002 -0.00014823 0.832009 0.000135577 0.999993 1.67978
1.00002 -0.00014823 0.832009 0.000135577 0.999993 1.67978
1.00002 -0.00014823 0.832009 0.000135577 0.999993 1.67978
1.00002 -0.00014823 0.832009 0.000135577 0.999993 1.67978
1.00002 -0.00014823 0.832009 0.000135577 0.999993 1.67978
1.00002 -0.00014823 0.832009 0.000135577 0.999993 1.67978
1.00002 -0.00014823 0.832009 0.000135577 0.999993 1.67978
1.00002 -0.00014823 0.832009 0.000135577 0.999993 1.67978
1.00002 -0.00014823 0.832009 0.000135577 0.999993 1.67978
1.00002 -0.00014823 0.832009 0.000135577 0.999993 1.67978
1.00002 -0.00014823 0.832009 0.000135577 0.999993 1.67978
1.00002 -0.00014823 0.832009 0.000135577 0.999993 1.67979
1.00002 -0.00014823 0.832009 0.000135577 0.999993 1.67979
1.00002 -0.00014823 0.83201 0.000135577 0.999993 1.67979
1.00002 -0.00014823 0.83201 0.000135577 0.999993 1.67979
1.00002 -0.00014823 0.83201 0.000135577 0.999993 1.67979
