14 0.997794 16.986 505.783 941.149
11 0.995957 -31.5865 245.038 807.235
6 1.0008 10.9114 532.735 630.428
9 0.998564 -22.5093 234.636 479.681
2 0.998664 9.37416 535.844 326.226
1 0.998589 -2.52807 362.157 170.939
