645.59 269.025 1.49868 0.70017 -0.0385831 -0.0432639
652.676 244.293 0.21258 -0.74196 -0.000352826 0.0197217
659.37 241.474 0.200819 -0.08457 -0.00048598 0.0195525
665.524 260.38 0.18462 0.56718 -0.0146394 -0.00799742
