228.54 79.9614 0.1008 9.31549e-05 0.000289806 0.000598405
232.222 80.6294 0.11046 0.02004 0.00281879 0.000944186
239.036 82.3465 0.20442 0.0515128 0.00218971 0.000603005
248.283 84.7336 0.27741 0.071613 0.00260907 0.000985776
260.429 88.216 0.364379 0.104472 0.00297992 0.00146501
275.886 93.3262 0.46371 0.153306 0.00379352 0.00245664
295.558 101.166 0.590161 0.235194 0.00392846 0.00258858
319.595 111.882 0.72111 0.32148 0.00519571 0.00389249
349.405 126.923 0.8943 0.45123 0.00407521 0.00247501
383.743 144.714 1.03014 0.53373 0.00625768 0.00197729
425.034 164.702 1.23873 0.59964 0.00536581 -0.00255959
472.287 181.846 1.41759 0.51432 0.00378001 -0.00845278
523.74 189.598 1.54359 0.23256 -0.00105117 -0.0140913
574.025 181.693 1.50855 -0.23715 0.00126716 0.00470072
625.718 179.011 1.55079 -0.0804597 -0.013626 0.00650069
