530.28 568.166 0.375721 -0.0183289 -0.00475477 -0.00104584
537.521 566.393 0.217229 -0.0531903 -0.00454318 0.000842432
539.714 565.556 0.0657898 -0.0251093 -0.00499949 0.00190344
536.352 566.834 -0.10086 0.0383386 -0.00411476 0.00146618
528.418 569.741 -0.238019 0.0872113 -0.00411844 0.00144443
515.908 574.253 -0.3753 0.135359 -0.00413641 0.00132122
498.802 580.233 -0.513181 0.179399 -0.00389248 0.000812769
477.371 587.116 -0.64293 0.206492 -0.00265861 0.000358099
452.986 594.397 -0.73155 0.218428 -0.00471599 0.000570685
423.361 602.312 -0.88875 0.237451 -0.00205378 -0.000959436
391.454 609.161 -0.957209 0.20547 -0.00298713 -2.87842e-05
356.228 615.978 -1.05678 0.20451 -0.00181439 0.00264957
318.986 625.739 -1.11726 0.29283 -0.00214739 0.0170874
279.358 654.486 -1.18884 0.86241 -0.00125101 0.0208908
