1 -0 0 -0 1 0
1 -0 0 -0 1 0
1 -0 0 -0 1 0
1 -0 0 -0 1 0
1 -0 0 -0 1 0
1 -0 0 -0 1 0
1 -0 0 -0 1 0
1 -0 0 -0 1 0
1 -0 0 -0 1 0
1 -0 0 -0 1 0
1 -0 0 -0 1 0
1 -0 0 -0 1 0
1 -0 0 -0 1 0
1 -0 0 -0 1 0
1 -0 0 -0 1 0
1 -0 0 -0 1 0
1 -0 0 -0 1 0
1 -0 0 -0 1 0
1 -0 0 -0 1 0
1 -0 0 -0 1 0
1 -0 0 -0 1 0
1 -0 0 -0 1 0
1 -0 0 -0 1 0
1 -0 0 -0 1 0
1 -0 0 -0 1 0
1 -0 0 -0 1 0
1 -0 0 -0 1 0
1 -0 0 -0 1 0
1 -0 0 -0 1 0
1 -0 0 -0 1 0
1 -0 0 -0 1 0
1 -0 0 -0 1 0
1 -0 0 -0 1 0
1 -0 0 -0 1 0
1 -0 0 -0 1 0
1 -0 0 -0 1 0
1 -0 0 -0 1 0
1 -0 0 -0 1 0
1 -0 0 -0 1 0
1 -0 0 -0 1 0
1 -0 0 -0 1 0
1 -0 0 -0 1 0
1 -0 0 -0 1 0
1 -0 0 -0 1 0
1 -0 0 -0 1 0
1 -0 0 -0 1 0
1 -0 0 -0 1 0
1 -0 0 -0 1 0
1 -0 0 -0 1 0
1 -0 0 -0 1 0
1 -0 0 -0 1 0
1 -0 0 -0 1 0
1 -0 0 -0 1 0
1 -0 0 -0 1 0
1 -0 0 -0 1 0
1 -0 0 -0 1 0
1 -0 0 -0 1 0
1 -0 0 -0 1 0
1 -0 0 -0 1 0
1 -0 0 -0 1 0
1 -0 0 -0 1 0
1 -0 0 -0 1 0
1 -0 0 -0 1 0
1 -0 0 -0 1 0
1 -0 0 -0 1 0
1 -0 0 -0 1 0
1 -0 0 -0 1 0
1 -0 0 -0 1 0
1 -0 0 -0 1 0
1 -0 0 -0 1 0
1 -0 0 -0 1 0
1 -0 0 -0 1 0
1 -0 0 -0 1 0
1 -0 0 -0 1 0
1 -0 0 -0 1 0
1 -0 0 -0 1 0
1 -0 0 -0 1 0
1 -0 0 -0 1 0
1 -1.98405e-05 0.00141534 1.99078e-05 1 0.00335409
1 -1.98405e-05 0.00141534 1.99078e-05 1 0.00335409
1 -1.98405e-05 0.00141534 1.99078e-05 1 0.00335409
1 -1.98405e-05 0.00141534 1.99078e-05 1 0.00335409
1 -1.98405e-05 0.00141534 1.99078e-05 1 0.00335409
1 -1.98405e-05 0.00141534 1.99078e-05 1 0.00335409
1 -1.98405e-05 0.00141534 1.99078e-05 1 0.00335409
1 -1.98405e-05 0.00141534 1.99078e-05 1 0.00335409
1 -1.98405e-05 0.00141534 1.99078e-05 1 0.00335409
1 -1.98405e-05 0.00141534 1.99078e-05 1 0.00335409
1 -1.98405e-05 0.00141534 1.99078e-05 1 0.00335409
1 -1.98405e-05 0.00141534 1.99078e-05 1 0.00335409
1 -1.98405e-05 0.00141534 1.99078e-05 1 0.00335409
1 -1.98405e-05 0.00141534 1.99078e-05 1 0.00335409
1 -1.98405e-05 0.00141534 1.99078e-05 1 0.00335409
1 -1.98405e-05 0.00141534 1.99078e-05 1 0.00335409
1 -1.98405e-05 0.00141534 1.99078e-05 1 0.00335409
1 -1.98405e-05 0.00141534 1.99078e-05 1 0.00335409
1 -1.98405e-05 0.00141534 1.99078e-05 1 0.00335409
1 -1.98405e-05 0.00141534 1.99078e-05 1 0.00335409
1 -1.98405e-05 0.00141534 1.99078e-05 1 0.00335409
1 -1.98405e-05 0.00141534 1.99078e-05 1 0.00335409
1 -1.98405e-05 0.00141534 1.99078e-05 1 0.00335409
1 -1.98405e-05 0.00141534 1.99078e-05 1 0.00335409
1 -1.98405e-05 0.00141534 1.99078e-05 1 0.00335409
1 -1.98405e-05 0.00141534 1.99078e-05 1 0.00335409
1 -1.98405e-05 0.00141534 1.99078e-05 1 0.00335409
1 -1.98405e-05 0.00141534 1.99078e-05 1 0.00335409
1 -1.98405e-05 0.00141534 1.99078e-05 1 0.00335409
1 -1.98405e-05 0.00141534 1.99078e-05 1 0.00335409
1 -1.98405e-05 0.00141534 1.99078e-05 1 0.00335409
1 -1.98405e-05 0.00141534 1.99078e-05 1 0.00335409
1 -1.98405e-05 0.00141534 1.99078e-05 1 0.00335409
1 -1.98405e-05 0.00141534 1.99078e-05 1 0.00335409
1 -1.98405e-05 0.00141534 1.99078e-05 1 0.00335409
1 -1.98405e-05 0.00141534 1.99078e-05 1 0.00335409
1 -1.98405e-05 0.00141534 1.99078e-05 1 0.00335409
1 -1.98405e-05 0.00141534 1.99078e-05 1 0.00335409
1 -1.98405e-05 0.00141534 1.99078e-05 1 0.00335409
1 -1.98405e-05 0.00141534 1.99078e-05 1 0.00335409
1 -1.98405e-05 0.00141534 1.99078e-05 1 0.00335409
1 -1.98405e-05 0.00141534 1.99078e-05 1 0.00335409
1 -1.98405e-05 0.00141534 1.99078e-05 1 0.00335409
1 -1.98405e-05 0.00141534 1.99078e-05 1 0.00335409
1 -1.98405e-05 0.00141534 1.99078e-05 1 0.00335409
1 -1.98405e-05 0.00141534 1.99078e-05 1 0.00335409
1 -1.98405e-05 0.00141534 1.99078e-05 1 0.00335409
1 -1.98405e-05 0.00141534 1.99078e-05 1 0.00335409
1 -1.98405e-05 0.00141534 1.99078e-05 1 0.00335409
1 -1.98405e-05 0.00141534 1.99078e-05 1 0.00335409
1 -1.98405e-05 0.00141534 1.99078e-05 1 0.00335409
1 -1.98405e-05 0.00141534 1.99078e-05 1 0.00335409
1 -1.98405e-05 0.00141534 1.99078e-05 1 0.00335409
1 -1.98405e-05 0.00141534 1.99078e-05 1 0.00335409
1 -1.98405e-05 0.00141534 1.99078e-05 1 0.00335409
1 -1.98405e-05 0.00141534 1.99078e-05 1 0.00335409
1 -1.98405e-05 0.00141534 1.99078e-05 1 0.00335409
1 -1.98405e-05 0.00141534 1.99078e-05 1 0.00335409
1 -1.98405e-05 0.00141534 1.99078e-05 1 0.00335409
1 -1.98405e-05 0.00141534 1.99078e-05 1 0.00335409
1 -1.98405e-05 0.00141534 1.99078e-05 1 0.00335409
1 -1.98405e-05 0.00141534 1.99078e-05 1 0.00335409
1 -1.98405e-05 0.00141534 1.99078e-05 1 0.00335409
1 -1.98405e-05 0.00141534 1.99078e-05 1 0.00335409
1 -1.98405e-05 0.00141534 1.99078e-05 1 0.00335409
1 -1.98405e-05 0.00141534 1.99078e-05 1 0.00335409
1 -1.98405e-05 0.00141534 1.99078e-05 1 0.00335409
1 -1.98405e-05 0.00141534 1.99078e-05 1 0.00335409
1 -1.98405e-05 0.00141534 1.99078e-05 1 0.00335409
1 -1.98405e-05 0.00141534 1.99078e-05 1 0.00335409
1 -1.98405e-05 0.00141534 1.99078e-05 1 0.00335409
1 -1.98405e-05 0.00141534 1.99078e-05 1 0.00335409
1 -1.98405e-05 0.00141534 1.99078e-05 1 0.00335409
1 -1.98405e-05 0.00141534 1.99078e-05 1 0.00335409
1 -1.98405e-05 0.00141534 1.99078e-05 1 0.00335409
1 -1.98405e-05 0.00141534 1.99078e-05 1 0.00335409
1 -1.98405e-05 0.00141534 1.99078e-05 1 0.00335409
