0.999957 0.00823664 -5.30157 -0.00825224 0.999982 3.57405
0.999957 0.00823652 -5.30157 -0.00825213 0.999982 3.57405
0.999957 0.00823867 -5.29913 -0.0082548 0.999982 3.57423
0.999957 0.00823881 -5.29888 -0.0082549 0.999982 3.5743
