1 2.10894e-06 0.000101888 -2.14048e-06 1 0.000431276
1 2.10894e-06 0.000101888 -2.14048e-06 1 0.000431276
1 2.10894e-06 0.000101888 -2.14048e-06 1 0.000431276
1 2.10894e-06 0.000101888 -2.14048e-06 1 0.000431276
1 2.10894e-06 0.000101888 -2.14048e-06 1 0.000431276
