138.009 111.043 0.23055 0.0148801 -0.000338406 5.03998e-05
145.318 111.595 0.21927 0.0165601 0.000165619 -4.05052e-05
152.811 112.102 0.22479 0.0152099 0.000701079 -0.000390591
161.083 112.175 0.24816 0.00219017 0.000534622 0.00093149
169.949 113.283 0.26598 0.0332398 -0.000587714 -0.000885594
178.162 113.407 0.24639 0.00372002 0.000467097 0.000298801
186.894 113.863 0.26196 0.01368 4.50439e-06 -0.000157503
195.631 114.144 0.26211 0.00842995 0.000448201 -0.000132296
204.866 114.278 0.27705 0.00402008 0.000931503 -1.34995e-05
215.136 114.397 0.3081 0.0035701 0.000482396 0.000115192
225.942 114.644 0.32418 0.00740982 0.000648894 0.000210608
237.469 115.125 0.34581 0.0144301 -0.000120589 0.000116998
248.862 115.736 0.34179 0.01833 0.00127169 0.000272701
261.668 116.65 0.38418 0.02742 -5.41077e-06 -0.000128705
274.468 117.421 0.384 0.0231299 0.000114313 -0.000134095
287.395 118.043 0.38781 0.01866 8.19031e-05 -0.000170103
300.413 118.476 0.39054 0.01299 -3.15033e-05 0.000209702
313.396 119.142 0.38949 0.01998 0.00107551 0.000107103
327.574 119.927 0.42534 0.0235501 -0.000109808 -0.000324007
341.63 120.352 0.42168 0.0127499 0.000551706 6.03081e-05
356.299 120.844 0.44007 0.0147601 0.000436487 -9.90829e-06
371.453 121.325 0.45462 0.0144299 0.000136807 0.000334808
386.759 122.178 0.45918 0.0255901 5.66895e-05 -5.58037e-05
402.128 122.969 0.46107 0.02373 0.000447308 -0.000251099
417.994 123.481 0.47598 0.01536 0.00020072 0.000251099
434.083 124.272 0.482671 0.02373 0.000552585 6.21002e-05
450.786 125.132 0.50109 0.0258 -0.000209702 -9.00192e-06
467.256 125.982 0.4941 0.0255 0.000650693 -0.000258302
484.449 126.545 0.51579 0.0168899 0.00019259 0.000407703
501.856 127.561 0.522209 0.03048 -0.000371695 -0.000163792
518.85 128.395 0.50982 0.0250202 0.000729959 7.73918e-05
536.655 129.315 0.534152 0.0275999 -0.000256586 9.80942e-05
554.175 130.344 0.525599 0.0308698 0.000784863 -0.000751492
572.567 130.538 0.551761 0.00582001 0.000937738 0.000813606
592.001 131.636 0.583019 0.0329402 0.00131495 0.00292949
612.896 135.989 0.626851 0.13059 -0.00227071 0.0161127
631.268 158.245 0.55116 0.66768 0.00165509 0.0164844
651.479 198.817 0.60633 1.21716 0.000737073 0.0101133
