0.999727 0.0217201 -12.4086 -0.0218159 0.999865 8.37317
0.999722 0.022274 -12.7018 -0.0223721 0.999853 8.47581
0.999721 0.0222748 -12.7021 -0.0223753 0.999855 8.47592
0.999721 0.0222757 -12.7021 -0.0223763 0.999855 8.47594
0.99972 0.0222812 -12.7027 -0.0223812 0.999855 8.47597
0.999721 0.0223155 -12.7199 -0.0224162 0.999854 8.48524
0.999722 0.0223229 -12.7199 -0.0224191 0.99985 8.48524
0.999722 0.0223237 -12.7199 -0.0224193 0.99985 8.48525
0.99972 0.0223249 -12.7204 -0.0224215 0.999851 8.48539
0.99972 0.0223249 -12.7204 -0.0224215 0.999851 8.48539
0.99972 0.0223249 -12.7204 -0.0224215 0.999851 8.48539
0.99972 0.0223249 -12.7204 -0.0224215 0.999851 8.48539
0.99972 0.022325 -12.7204 -0.0224223 0.999851 8.48541
0.99972 0.022325 -12.7204 -0.0224223 0.999851 8.48541
0.999724 0.022327 -12.7204 -0.0224274 0.999852 8.48548
0.999723 0.0223283 -12.7205 -0.022429 0.999852 8.48551
0.999726 0.0223239 -12.7206 -0.0224342 0.999858 8.48565
0.999726 0.0223258 -12.7207 -0.0224359 0.999858 8.48566
0.999727 0.0223265 -12.7207 -0.022438 0.999858 8.4857
0.999727 0.0223265 -12.7207 -0.022438 0.999858 8.4857
