0.999968 -0.00740826 2.80955 0.00738372 0.999986 -2.79692
0.999968 -0.00740852 2.80955 0.00738364 0.999986 -2.79692
0.999968 -0.00740831 2.80955 0.00738343 0.999986 -2.79692
0.999968 -0.00740831 2.80955 0.00738343 0.999986 -2.79692
0.999967 -0.00740951 2.80944 0.00738339 0.999988 -2.79701
0.999967 -0.00740935 2.80943 0.00738341 0.999988 -2.79703
0.999967 -0.00740935 2.80943 0.00738341 0.999988 -2.79703
0.999967 -0.00740936 2.80943 0.00738342 0.999988 -2.79703
0.999967 -0.00740936 2.80943 0.00738342 0.999988 -2.79703
0.999967 -0.00740936 2.80943 0.00738342 0.999988 -2.79703
0.999967 -0.00740937 2.80943 0.00738343 0.999988 -2.79703
0.999967 -0.00740937 2.80943 0.00738343 0.999988 -2.79703
0.999967 -0.00740942 2.8094 0.00738348 0.999988 -2.79707
