0.999998 -0.00164134 1.22263 0.00164009 0.999997 -0.9877
0.999998 -0.00164134 1.22263 0.00164009 0.999997 -0.9877
0.999998 -0.00170271 1.24686 0.00170129 0.999997 -1.00133
1.00002 -0.000393846 0.877457 0.000381289 0.999992 1.54038
