9 0.975343 12.9639 459.796 682.096
2 0.978901 -5.75593 365.012 422.095
10 0.954416 68.485 678.588 485.867
4 0.988646 15.9819 166.157 258.573
0 0.969406 9.54367 519.665 260.287
13 0.973062 -7.84597 374.533 113.999
