1 -0 0 -0 1 0
1 -0 0 -0 1 0
1 -0 0 -0 1 0
1 -0 0 -0 1 0
1 -0 0 -0 1 0
1 -0 0 -0 1 0
1 -0 0 -0 1 0
1 -0 0 -0 1 0
1 -0 0 -0 1 0
1 -0 0 -0 1 0
1 -0 0 -0 1 0
1 -0 0 -0 1 0
1 -0 0 -0 1 0
1 -1.61551e-06 0.00015053 1.60343e-06 1 0.000207383
1 -1.61551e-06 0.00015053 1.60343e-06 1 0.000207383
1 -1.61551e-06 0.00015053 1.60343e-06 1 0.000207383
1 -1.61551e-06 0.00015053 1.60343e-06 1 0.000207383
1 -1.61551e-06 0.00015053 1.60343e-06 1 0.000207383
1 -1.61551e-06 0.00015053 1.60343e-06 1 0.000207383
1 -1.61551e-06 0.00015053 1.60343e-06 1 0.000207383
1 -1.61551e-06 0.00015053 1.60343e-06 1 0.000207383
1 -1.61551e-06 0.00015053 1.60343e-06 1 0.000207383
1 -1.61551e-06 0.00015053 1.60343e-06 1 0.000207383
1 -1.61551e-06 0.00015053 1.60343e-06 1 0.000207383
1 -1.61551e-06 0.00015053 1.60343e-06 1 0.000207383
1 -1.61551e-06 0.00015053 1.60343e-06 1 0.000207383
1 -1.61551e-06 0.00015053 1.60343e-06 1 0.000207383
1 -1.61551e-06 0.00015053 1.60343e-06 1 0.000207383
1 -1.61551e-06 0.00015053 1.60343e-06 1 0.000207383
1 -1.61551e-06 0.00015053 1.60343e-06 1 0.000207383
1 -1.61551e-06 0.00015053 1.60343e-06 1 0.000207383
1 -1.61551e-06 0.00015053 1.60343e-06 1 0.000207383
1 -1.61551e-06 0.00015053 1.60343e-06 1 0.000207383
1 -1.61551e-06 0.00015053 1.60343e-06 1 0.000207383
1 -1.61551e-06 0.00015053 1.60343e-06 1 0.000207383
1 -1.61551e-06 0.00015053 1.60343e-06 1 0.000207383
1 -1.61551e-06 0.00015053 1.60343e-06 1 0.000207383
1 -1.61551e-06 0.00015053 1.60343e-06 1 0.000207383
1 -1.61551e-06 0.00015053 1.60343e-06 1 0.000207383
1 -1.61551e-06 0.00015053 1.60343e-06 1 0.000207383
1 -1.61551e-06 0.00015053 1.60343e-06 1 0.000207383
1 -1.61551e-06 0.00015053 1.60343e-06 1 0.000207383
1 -1.61551e-06 0.00015053 1.60343e-06 1 0.000207383
1 -1.61551e-06 0.00015053 1.60343e-06 1 0.000207383
1 -1.61551e-06 0.00015053 1.60343e-06 1 0.000207383
1 -1.61551e-06 0.00015053 1.60343e-06 1 0.000207383
1 -1.61551e-06 0.00015053 1.60343e-06 1 0.000207383
1 -1.61551e-06 0.00015053 1.60343e-06 1 0.000207383
1 -1.61551e-06 0.00015053 1.60343e-06 1 0.000207383
1 -1.61551e-06 0.00015053 1.60343e-06 1 0.000207383
1 -1.61551e-06 0.00015053 1.60343e-06 1 0.000207383
1 -1.61551e-06 0.00015053 1.60343e-06 1 0.000207383
1 -1.61551e-06 0.00015053 1.60343e-06 1 0.000207383
1 -1.61551e-06 0.00015053 1.60343e-06 1 0.000207383
1 -1.61551e-06 0.00015053 1.60343e-06 1 0.000207383
1 -1.61551e-06 0.00015053 1.60343e-06 1 0.000207383
1 -1.61551e-06 0.00015053 1.60343e-06 1 0.000207383
1 -1.61551e-06 0.00015053 1.60343e-06 1 0.000207383
1 -1.61551e-06 0.00015053 1.60343e-06 1 0.000207383
1 -1.61551e-06 0.00015053 1.60343e-06 1 0.000207383
1 -1.61551e-06 0.00015053 1.60343e-06 1 0.000207383
1 -1.61551e-06 0.00015053 1.60343e-06 1 0.000207383
1 -1.61551e-06 0.00015053 1.60343e-06 1 0.000207383
1 -1.61551e-06 0.00015053 1.60343e-06 1 0.000207383
1 -1.61551e-06 0.00015053 1.60343e-06 1 0.000207383
1 -1.61551e-06 0.00015053 1.60343e-06 1 0.000207383
1 -1.61551e-06 0.00015053 1.60343e-06 1 0.000207383
1 -1.61551e-06 0.00015053 1.60343e-06 1 0.000207383
1 -1.61551e-06 0.00015053 1.60343e-06 1 0.000207383
1 -1.61551e-06 0.00015053 1.60343e-06 1 0.000207383
1 -1.61551e-06 0.00015053 1.60343e-06 1 0.000207383
1 -1.61551e-06 0.00015053 1.60343e-06 1 0.000207383
1 -1.61551e-06 0.00015053 1.60343e-06 1 0.000207383
1 -1.61551e-06 0.00015053 1.60343e-06 1 0.000207383
1 -1.61551e-06 0.00015053 1.60343e-06 1 0.000207383
1 -1.61551e-06 0.00015053 1.60343e-06 1 0.000207383
1 -1.61551e-06 0.00015053 1.60343e-06 1 0.000207383
1 -1.61551e-06 0.00015053 1.60343e-06 1 0.000207383
1 -1.61551e-06 0.00015053 1.60343e-06 1 0.000207383
1 -1.61551e-06 0.00015053 1.60343e-06 1 0.000207383
1 -1.61551e-06 0.00015053 1.60343e-06 1 0.000207383
1 -1.61551e-06 0.00015053 1.60343e-06 1 0.000207383
0.999982 -0.00565958 2.22926 0.00565365 0.999983 -0.129556
0.999982 -0.00566878 2.23 0.00566269 0.999983 -0.128997
0.999953 -0.00938398 5.15733 0.00937975 0.999954 -0.775694
0.999945 -0.0103931 5.91479 0.0103901 0.999945 -0.962764
0.999945 -0.0103934 5.91479 0.0103904 0.999945 -0.962762
0.999945 -0.0103934 5.91479 0.0103904 0.999945 -0.962762
0.999945 -0.0103934 5.91479 0.0103904 0.999945 -0.962762
0.999945 -0.0103934 5.91479 0.0103904 0.999945 -0.962762
0.999945 -0.0103934 5.91479 0.0103904 0.999945 -0.962762
