1 1 0
1 1 0
1 1 0
1 1 0
1 1 0
1 1 0
1 1 0
1 1 0
1 1 0
1 1 0
1 1 0
1 1 0
1 1 0
1 1 0
1 1 0
1 1 0
1 1 0
1 1 0
1 1 0
1 1 0
1 1 0
1 1 0
1 1 0
1 1 0
1 1 0
1 1 0
1 1 0
1 1 0
1 1 0
1 1 0
1 1 0
1 1 0
1 1 0
1 1 0
1 1 0
1 1 0
1 1 0
1 1 0
1 1 0
1 1 0
1 1 0
1 1 0
1 1 0
1 1 0
1 1 0
1 1 0
1 1 0
1 1 0
1 1 0
1 1 0
1 1 0
1 1 0
1 1 0
1 1 0
1 1 0
1 1 0
1 1 0
1 1 0
1 1 0
1 1 0
1 1 0
1 1 0
2 2 -1
2 2 -1
3 2 -1
2 2 -1
2 1 2
1 1 2
1 1 2
1 1 2
1 1 2
1 1 2
1 1 2
1 1 2
1 1 2
1 1 2
1 1 2
1 1 2
1 1 2
1 1 2
1 1 2
1 1 2
1 1 2
2 2 -1
3 2 -1
2 3 8
2 2 -1
2 2 -1
2 2 -1
2 2 -1
2 2 -1
2 2 -1
3 2 -1
2 2 -1
2 2 -1
3 2 -1
2 1 7
1 1 7
1 1 7
1 1 7
1 1 7
1 1 7
1 1 7
1 1 7
1 1 7
1 1 7
1 1 7
1 1 7
1 1 7
1 1 7
2 2 -1
2 2 -1
3 2 -1
2 2 -1
2 2 -1
3 2 -1
2 2 -1
2 2 -1
2 2 -1
2 2 -1
2 2 -1
3 2 -1
2 2 -1
2 2 -1
3 2 -1
3 2 -1
2 2 -1
2 2 -1
2 2 -1
2 2 -1
2 1 14
1 1 14
1 1 14
1 1 14
1 4 14
1 1 14
1 1 14
1 1 14
