14 0.998546 21.1963 505.721 920.226
10 0.993161 -27.6887 254.751 790.711
7 1.00215 19.4164 536.389 607.817
8 0.999467 -49.7371 212.185 459.531
3 0.996984 15.6946 538.653 302.351
0 0.999979 -1.68919 391.397 147.07
