0.999952 -0.00708423 3.4071 0.00708792 0.999972 -3.87414
0.999932 -0.0086823 3.9511 0.00868854 0.999965 -4.47643
0.999932 -0.00868334 3.951 0.00868858 0.999965 -4.47677
0.999932 -0.00868334 3.951 0.00868858 0.999965 -4.47677
0.999933 -0.00868391 3.9509 0.00868817 0.999965 -4.4771
0.999933 -0.00868405 3.9509 0.00868821 0.999965 -4.47711
0.999933 -0.00868446 3.95093 0.00868838 0.999965 -4.47715
0.999926 -0.00927054 4.08244 0.0092795 0.999962 -4.87159
0.999926 -0.00927889 4.08025 0.00928655 0.999963 -4.88002
0.999928 -0.00927779 4.08027 0.00928507 0.999962 -4.88008
0.999928 -0.00927786 4.08028 0.00928518 0.999962 -4.88009
