010 -87.340633 672.620796 -19.520065
013 -331.980042 414.110573 -32.244747
004 470.103818 785.681183 39.807601
009 -168.966775 528.119249 -7.717426
001 276.027286 504.002050 34.617418
014 97.175016 142.275869 5.826613
