011 433.401299 836.686917 19.847830
007 220.947114 581.768206 16.235156
006 -306.615853 895.724349 -3.213419
000 -274.449956 493.188991 -24.439068
004 -219.604964 659.022282 -22.064798
014 21.818407 75.489260 -6.050490
