002 255.070100 826.968580 24.311066
013 -72.159530 525.036202 -38.444464
008 358.702745 579.081473 22.376619
000 205.777175 342.513107 4.327263
011 166.588075 625.389821 34.636618
014 281.170961 142.773825 8.388308
