003 120.289248 746.606715 39.467403
009 -351.630816 805.607441 -32.570012
001 -221.617870 356.454298 -5.453169
002 -259.474752 542.578735 -21.545946
011 -69.517234 877.462716 -12.458735
014 -124.364733 166.671180 19.031137
