013 -220.342921 771.895251 -40.904679
009 117.545690 834.395803 23.641983
001 158.325107 478.041197 30.415520
008 425.133247 417.729752 36.805472
006 319.467257 773.453975 36.408884
014 271.989791 89.581654 15.405457
