008 218.400939 828.085669 4.941736
009 77.735337 355.924244 1.054819
005 205.323186 610.523052 24.817107
000 -288.618716 654.104162 -42.196213
007 -361.985197 556.112532 -40.231350
014 -302.073997 166.505474 -14.278049
