000 163.740621 773.634804 29.166947
009 405.535013 558.699228 43.547509
001 155.164819 605.585079 20.605257
011 -306.214026 557.761630 -0.391138
005 -285.464681 855.962508 -17.039709
014 365.332542 154.134616 27.456988
