011 -400.075317 835.650576 -22.605294
008 -183.031664 577.459103 -24.327677
004 -489.593964 456.949155 -14.898270
003 -140.309884 352.171593 -2.320438
013 -34.073973 826.475254 -37.603239
014 298.530131 176.032805 18.448584
