000 -289.802595 777.151306 -18.371568
005 197.824842 415.780627 13.248998
007 222.702900 851.055525 7.697457
004 155.402288 667.507575 37.676700
010 -428.219326 425.126684 -33.450692
013 -184.142618 508.135866 -41.101811
014 -273.810969 165.416395 -18.874509
