006 193.393666 795.693327 17.423543
012 -377.440852 845.257346 -27.397939
010 262.177146 542.779547 10.129613
001 -166.780919 536.284642 -26.734473
011 -388.272529 387.768562 -6.132906
014 -360.973644 119.750623 -27.794706
