002 -266.296312 755.034061 -30.394756
010 -15.749188 861.484816 -17.875481
008 229.046854 709.934595 40.616976
009 164.579998 438.510781 43.163253
012 -354.708850 441.067739 -35.695259
014 126.594426 158.048206 22.612958
