010 395.868571 695.578173 33.381126
003 -255.047098 659.672808 -5.688688
013 -182.181386 898.627416 -9.156898
008 371.830654 906.750912 6.324143
012 -393.407619 481.773591 -18.325964
014 108.716460 148.755311 23.440187
