009 224.149982 748.199195 29.150221
001 -216.943728 816.715695 -27.325716
011 -110.193085 437.535640 -17.270652
000 314.545325 579.872523 13.435466
006 -231.184486 634.469390 -20.304308
005 328.066202 390.309699 6.799724
014 364.402080 118.952913 29.744757
