010 339.092183 705.580892 32.785015
012 238.859882 878.234637 21.321888
000 -265.055028 632.824132 -39.870800
008 -36.024507 645.473096 -25.448928
011 -304.284584 420.094401 -15.034871
004 34.110869 438.795328 -18.418358
014 -70.948536 134.477637 -0.189488
