013 223.823358 755.440409 7.471422
003 -252.696271 682.408472 -29.164112
012 -202.447188 875.727741 -5.691744
011 343.681482 415.270768 32.138201
005 269.531640 584.866186 11.585848
006 -139.078031 423.359762 -16.411965
014 422.055571 132.703483 0.280871
