012 -268.999796 621.874946 -8.458779
011 394.833533 618.323311 37.912021
002 -190.485468 828.489271 -21.666891
010 399.891015 873.797681 27.014709
006 -198.843509 436.121854 -12.392214
008 -443.105952 337.146467 -5.765635
014 -331.695774 99.085177 -4.724838
