002 169.006060 660.441050 13.170141
001 313.978671 502.098154 27.635594
012 -169.153642 424.230139 -9.326941
003 167.315968 846.560047 20.826327
010 -417.549575 729.975312 -40.411823
014 366.403428 103.777435 27.171660
