011 242.112154 720.395015 10.925696
003 292.264668 896.280537 7.905933
004 -58.141932 757.397180 -31.923625
006 -340.386450 724.311854 -35.003137
012 -418.022921 535.236979 -38.411620
001 213.551372 489.241263 35.260847
014 -111.822232 86.420046 -13.341857
