002 -256.844794 915.305520 0.281553
006 321.242311 619.443097 37.265120
000 261.420882 877.541657 15.578709
004 -158.062120 526.943335 -7.255866
010 -213.151878 722.205612 -29.230267
014 86.884983 87.074043 -0.778717
