010 114.612573 810.219654 13.344897
004 -216.595017 559.677288 -27.136455
006 314.767593 724.180097 19.123585
013 -157.479928 365.681430 -12.049590
011 -342.456096 865.675841 -16.626657
008 428.287124 427.630531 37.076717
014 300.749478 65.731595 0.385628
