009 -358.953686 696.351356 -31.480255
004 -54.558463 547.013271 -39.019646
012 298.926319 578.738538 12.193985
008 -424.372415 413.523390 -11.021682
010 -300.066967 880.014129 -1.318566
006 282.187224 787.215518 20.186631
014 -328.649107 162.681447 -7.776736
