002 149.271186 845.196889 12.325528
011 -63.991902 469.025013 -19.499466
010 386.009012 533.814974 10.720205
001 -238.595969 671.142556 -11.646467
012 300.471908 333.385935 2.197219
014 -11.286552 125.988160 -26.206153
