010 -206.687048 657.713571 -5.043243
001 293.336601 548.833877 6.946179
000 -209.112465 869.312955 -13.756040
009 244.371092 854.235813 23.825909
013 422.760433 401.990261 14.584601
008 -383.999382 525.432548 -33.374576
014 -417.432430 167.022016 -22.304155
