002 -167.388416 789.678306 -19.531282
013 -345.200515 406.081993 -29.867571
009 -176.526176 451.067087 -26.678875
010 212.394668 578.059575 14.156496
004 397.422234 467.351563 2.596880
003 306.415627 887.247323 9.881119
014 423.666125 177.243773 9.723023
