000 141.827277 629.700373 4.214676
007 -337.936690 637.692174 -37.214862
009 347.365528 359.916418 8.278256
013 104.500153 443.966319 15.680156
012 348.547071 832.998459 29.869246
008 -283.868468 383.433447 -29.153207
014 -216.564580 192.021368 -1.959871
