012 162.399843 750.298510 4.564279
011 397.467146 407.750737 14.335227
013 -46.772292 583.899629 -33.464017
008 -135.208546 450.686909 -44.818168
009 -275.766748 863.742737 -38.987257
014 -85.104675 121.198127 6.054330
