011 -392.352562 681.269954 -43.104333
013 -68.904078 747.375574 -24.261812
008 100.121140 893.048377 10.849548
006 -263.879191 405.965088 -20.885974
012 -77.660292 561.640257 -29.380631
004 -282.228555 897.656880 -10.564630
014 -128.405172 160.115309 -11.704869
