013 315.636739 879.419249 7.457881
005 -223.667428 853.118544 -22.423462
011 88.421750 546.725622 16.954236
008 3.910470 375.167730 20.728209
002 -353.386007 588.919095 -34.612617
012 398.190077 413.620953 18.599402
014 -273.947531 89.737864 -17.023560
