000 -320.619133 807.346457 -1.870538
010 -80.999355 625.074404 -23.703326
003 -133.876674 454.660764 -9.239810
012 423.948147 505.270498 44.470310
009 -417.693339 634.370547 -15.872918
006 280.051824 867.469041 3.636787
014 -159.032173 128.645061 -26.106722
