009 150.146153 746.431283 5.835575
003 -145.794892 435.768678 -23.471836
011 174.452056 596.957102 13.272341
002 -312.359900 837.711019 -12.475263
006 -262.328508 653.112867 -26.392562
008 -106.331841 912.867267 -17.409060
014 -86.571857 160.420992 -13.086260
