008 96.297887 644.591147 15.558697
012 -69.876487 504.983796 -39.761079
005 343.339855 464.959227 31.034083
010 436.785843 698.801451 32.729045
003 130.111706 857.345487 16.019241
014 184.870918 75.707673 -3.708068
