003 -201.293791 704.612931 -25.385134
008 99.868798 529.057014 32.184525
006 -329.399786 454.665972 -21.892787
013 412.348131 744.813215 35.070022
000 -146.052934 817.480370 -26.891681
007 260.516993 366.704061 10.898238
014 55.730341 129.015848 -8.131782
