002 221.103896 835.108308 7.036677
013 258.414640 397.610857 14.898086
004 -509.891932 900.319188 0.636181
008 -420.745419 402.363792 -20.030367
006 125.882044 545.529200 42.666235
001 -320.180045 593.363039 -5.164208
014 -268.392070 176.718572 -15.867121
