003 -112.696638 818.414522 -27.135432
008 115.855184 571.759813 23.082733
007 303.889514 437.771498 6.988866
011 -370.613105 775.789247 -33.786597
012 374.943397 802.309706 31.280818
013 208.102905 892.274143 20.493256
014 -181.135070 102.831248 14.405716
