009 156.624032 661.614029 25.373251
012 -186.232110 730.347752 -28.038737
007 -176.252693 564.910123 -30.513509
005 213.099498 834.946211 12.140791
006 295.731727 417.522438 13.599135
002 -330.825662 446.356295 -19.459616
014 -108.031244 114.014682 3.584715
