002 -176.093813 758.897047 -43.933881
009 378.181887 656.501813 39.928172
000 -309.986339 340.543509 0.734963
003 266.654520 389.238365 8.196067
004 -341.612732 485.073865 -19.542553
010 279.978103 843.234887 26.474017
014 -420.655410 131.664445 -25.437948
