008 344.472106 882.215055 29.992579
007 -108.946770 633.113837 -35.898671
003 308.403051 386.304054 3.906755
005 -356.539505 636.141254 -43.544623
002 -189.589207 902.010480 0.052878
010 319.639885 526.642648 21.194790
014 16.157947 146.184766 26.129963
