013 -31.829327 850.178369 -42.245982
000 246.582366 384.492526 6.931538
001 311.296603 588.198725 2.181955
007 -345.833902 595.651051 -32.886691
010 -188.367579 710.335800 -32.707844
012 382.297666 863.191149 3.781653
014 166.983005 149.178670 7.389951
