013 -36.447729 747.332800 -30.833655
005 -183.666854 406.247148 -4.794299
007 317.940123 890.266525 10.759960
003 -190.311333 613.138854 -12.670821
010 314.575137 607.535358 29.945143
009 -364.732413 883.945592 -27.745088
014 172.340881 118.220674 29.205214
