003 282.071518 661.862817 9.315448
001 -142.698470 573.795413 -27.300672
011 -99.360210 812.310919 -17.189343
000 313.880623 389.483885 9.192658
010 276.888938 878.231951 22.606273
014 -23.402759 169.112403 14.180466
