012 -72.371303 812.895339 -25.419786
008 86.421426 566.618631 21.561689
010 -426.397959 659.319228 -26.589832
013 178.944081 450.368286 33.277761
011 -310.874459 393.696912 -34.728400
014 -16.696528 149.489045 17.537541
