010 -357.319027 679.083095 -38.560301
004 71.721502 736.760842 15.278078
003 236.897112 553.611868 20.495421
011 426.752361 442.465970 12.656091
006 -310.307431 469.497501 -26.172592
014 -435.399561 121.801264 -26.182495
