008 217.450460 671.290085 5.128296
010 -296.835363 668.375472 -3.321623
002 160.307796 816.077071 5.241738
001 -279.231453 475.315788 -18.003720
011 175.318251 416.285702 33.159200
014 -53.019732 200.867835 -0.362569
