006 210.782226 701.420814 4.389328
004 -68.189698 518.065261 -36.418419
007 -330.180323 446.217642 -26.088488
005 -324.815987 883.480213 -9.515080
010 -275.449018 672.208010 -10.361160
014 -83.255212 131.435977 6.973316
