002 281.555396 759.892583 33.624257
008 364.177886 476.353345 36.614183
005 -289.598638 638.419857 -44.395077
007 -220.801824 800.577078 -33.952319
001 350.801915 629.784255 35.618756
013 -272.013043 410.930947 -30.687564
014 66.495902 121.041651 22.524540
