011 -136.557356 698.076870 -43.506834
003 -182.304968 532.399697 -35.719818
000 313.196542 858.593929 12.758231
008 428.481828 592.651731 21.225000
001 -338.331499 471.018594 -30.566720
014 285.291523 150.705063 26.222576
