000 173.344106 771.113451 27.605515
012 122.171016 574.616902 33.461772
013 -293.621430 763.298872 -5.613865
009 -322.391621 579.643164 -39.782719
006 259.478649 497.634755 35.471824
002 -206.553788 893.585584 0.746391
014 21.215563 170.124726 19.193005
