007 308.480230 922.858464 4.856322
008 117.842563 446.654848 41.623033
005 -276.381526 809.924099 -6.797955
013 425.077488 606.023503 38.872750
006 186.301236 679.647673 26.057873
014 68.521765 146.403073 26.261372
