012 -108.164227 775.596917 -37.731183
009 168.605293 381.288145 20.608402
001 197.204796 598.201334 8.340732
013 -412.906249 718.572632 -38.313801
000 -345.140213 492.605135 -36.137806
006 299.081836 903.846144 2.247266
014 -2.077741 62.988840 -0.388985
