012 -351.980746 705.171824 -12.027900
007 184.555797 687.779506 12.162878
010 -258.285462 479.377206 -44.452224
001 -244.842304 849.964558 -15.105128
005 325.824484 472.338028 27.534832
000 317.815113 860.241717 6.405983
014 83.394001 122.159649 -23.245374
