008 146.374289 742.502566 32.277067
000 -320.938424 684.750381 -35.826766
005 -354.671858 492.477867 -42.604212
011 100.900733 449.110998 27.184431
004 360.918597 419.767989 30.881552
001 -283.921343 804.844846 -34.366256
014 23.532372 162.495750 1.279911
