005 -348.344200 777.463042 -44.638301
009 -344.998326 416.147358 -2.844980
011 -32.270396 797.691299 -4.146678
010 -424.698797 560.246750 -7.251715
008 350.752520 725.640581 29.016536
004 60.856121 473.029305 -28.307721
014 -246.492166 197.740617 -2.147709
