010 -53.028430 751.902182 -11.574455
000 224.073529 545.882969 25.680380
009 -310.514639 604.305491 -5.571357
013 409.276570 426.258070 41.685390
012 326.964237 786.855382 4.113180
003 -324.536786 465.563045 -11.537594
014 -197.807501 146.113323 -15.618703
