003 124.760897 746.396068 24.293689
011 212.444339 375.130853 2.740500
009 -421.295439 430.490611 -41.166406
005 -321.675295 847.015043 -10.709240
002 185.449664 541.192590 3.374744
014 424.470396 134.003004 20.354977
