012 394.025485 876.221629 19.185661
001 -145.924836 479.384410 -25.094024
007 308.532083 664.008355 24.262060
011 50.572127 760.698290 4.011836
008 -370.275084 731.153089 -27.450573
013 -269.477586 870.798607 -12.744914
014 214.516035 121.668817 10.148351
