000 -326.822865 839.234309 -12.854448
012 192.332710 501.662352 11.320611
007 -232.391966 382.822640 -0.127279
010 -283.906029 673.998730 -7.765905
001 182.443882 756.750976 42.339652
014 -28.065740 162.780494 -15.090525
