001 -230.922294 751.090472 -20.815233
013 415.834257 372.435434 7.700213
006 -179.821559 453.946129 -2.236435
009 -120.780155 869.725551 -38.649607
008 374.411999 612.542534 14.367367
014 229.564372 105.399945 10.402052
