010 22.936233 765.733012 14.087266
007 -288.868914 587.803960 -12.047414
005 275.306092 564.030498 38.654951
004 -64.491769 405.257194 10.556512
012 52.654460 901.926629 13.450085
014 76.865099 125.547465 -1.244880
