009 340.297357 821.068839 26.311195
012 245.163274 633.908107 9.788993
011 279.466179 358.881007 6.355483
005 -283.845889 463.352427 -38.169163
000 298.014391 512.437160 7.275026
006 -301.046638 693.725763 -36.914761
014 -108.747604 136.587427 18.730932
