002 316.402842 705.902615 22.763558
007 -227.480707 478.897818 -43.121894
009 -95.603992 665.367474 -37.718754
008 -388.039741 438.590726 -38.422426
010 -324.775419 872.620072 0.649779
014 -385.266237 161.743290 -8.115483
