008 374.672993 807.061369 33.627054
001 -319.538677 720.871659 -26.121423
000 230.707118 595.706415 22.594461
011 -237.944384 516.608333 -36.105303
013 35.626674 788.790698 13.077491
014 458.582833 90.983101 11.588555
