005 -209.110634 782.301883 -42.681623
001 309.844101 774.361592 12.236726
010 -136.192013 511.649310 -36.964975
000 264.873560 367.409373 6.491881
004 -489.620586 672.567327 -23.486942
014 -166.708426 160.298525 -28.762819
