002 338.201152 759.300124 42.972506
005 -226.987965 466.301997 -6.815917
003 -310.692680 852.234891 -15.808123
013 -412.107048 653.216938 -9.851604
010 388.978138 507.553457 17.661111
004 58.369553 712.675046 -16.714841
014 -30.275618 161.555602 -7.791491
