010 382.119367 670.052244 42.413140
009 -373.791402 638.229173 -4.675666
008 181.711023 402.098428 38.559553
005 -149.707912 768.305940 -25.072573
000 -316.582672 341.285779 -2.137891
011 31.859813 505.697266 26.356473
014 -360.040142 105.333633 -21.736383
