013 181.290594 756.174739 24.945906
002 194.683531 343.079389 3.415762
006 130.015205 571.013049 19.695558
009 52.027634 874.517329 5.154806
004 -197.846092 723.664838 -6.389173
008 348.186273 489.197811 8.010610
014 -468.920065 114.028064 -8.594211
