002 331.787643 743.407555 31.874259
012 275.236904 501.976941 36.541006
000 168.695421 924.549266 2.228960
004 42.761307 745.358852 -11.568040
011 -184.281035 448.927162 -5.541898
008 -350.699301 640.562654 -27.254585
014 -343.112646 126.563410 -23.463413
