000 193.902708 764.456618 40.109177
001 290.193171 485.005026 29.537253
011 -376.329642 502.184316 -33.384255
010 303.679373 650.552743 25.395469
002 -336.131905 750.020439 -26.586217
009 -206.479207 852.006782 -36.153003
014 -338.933339 152.422632 -26.415700
