011 281.838406 801.760549 28.886468
010 139.411643 549.543974 26.009197
007 253.379813 461.859254 23.368515
003 -307.920339 612.117151 -38.641545
013 39.822203 877.705302 9.698761
014 87.575776 139.724823 -11.727171
