013 -50.825805 855.296487 -24.823244
001 -182.270494 581.024666 -15.265258
011 -311.384992 385.555177 -33.326677
007 141.146349 371.660140 2.193176
006 340.449597 678.875441 41.768609
014 -215.679751 119.179069 -17.134373
