005 -262.228741 821.587666 -33.083403
011 370.705464 600.465260 44.860545
006 94.404759 651.976883 40.701818
000 -300.727185 444.533947 -21.082431
013 -392.505113 639.791132 -11.982022
014 76.268386 183.064199 6.025644
