008 -136.657272 870.507107 0.148260
012 276.309006 775.471733 4.937192
011 95.814538 529.043043 33.343463
001 -306.147935 638.646282 -32.307463
006 -323.590619 383.310153 -10.169300
007 225.113994 369.131262 5.271167
014 176.893570 116.914383 -6.619171
