010 255.705349 766.006694 11.313366
004 506.732346 358.424209 42.246373
011 -368.609802 902.472416 -11.430277
002 222.716421 438.372751 23.628418
012 -286.249901 503.135326 -32.961422
014 7.019461 136.443862 -14.804158
