001 126.249409 755.207571 39.335340
004 -450.717603 494.217586 -43.856765
003 356.369901 613.851298 44.251651
009 375.068742 406.536928 31.304589
000 -206.295314 556.143753 -33.557198
002 247.896575 694.953023 42.050751
014 86.953498 111.142821 28.384457
