001 228.514847 785.373628 36.820570
004 -49.671218 748.752464 22.326991
002 -244.915701 537.492739 -16.459950
007 -294.509461 379.253210 -8.926680
010 347.209923 676.976403 20.082798
000 308.627100 459.158209 17.309079
014 -202.287511 153.811435 -29.255188
