008 330.300310 854.690156 12.682606
002 -261.745809 490.190998 -26.631741
013 -218.583933 741.005248 -4.983633
004 231.724286 452.659848 15.468758
012 166.412876 673.580092 20.986380
014 371.166970 137.431971 26.920195
