009 338.560361 819.447978 15.910039
010 270.708584 592.605108 42.939136
003 312.005657 435.026244 22.750999
013 65.972031 801.150185 43.924840
004 -59.898247 877.205324 28.071713
006 -238.286382 551.873865 -3.264702
014 -368.180727 110.346015 -25.373105
