013 -425.770737 672.026400 -20.393915
011 -316.741127 449.838611 -33.715982
008 73.226289 840.288762 38.958577
012 -423.623430 824.587971 -18.338280
010 -87.817024 499.707579 -26.730237
014 393.588898 113.323701 26.131080
