003 -131.373690 907.773979 -7.434894
011 -333.845161 608.844164 -32.472575
013 -250.566600 441.106606 -16.329757
007 -155.686078 701.449973 -27.893004
009 70.604572 431.891381 44.478724
014 -78.325157 152.818824 -21.167418
