010 415.508618 824.503521 36.873743
007 -231.669911 683.143882 -29.839981
008 -428.099304 499.108792 -0.490995
001 201.934213 353.941930 1.524972
004 32.190670 804.162239 34.105118
012 425.531731 567.037104 15.269882
014 109.016172 130.348704 -15.770813
