007 -160.269768 803.578739 -13.939061
012 -389.557494 502.076874 -26.403392
008 294.594241 614.317638 14.389119
000 265.464924 429.571723 20.498844
001 -118.027095 616.264028 -26.429148
013 305.103417 792.402731 33.994894
014 -37.055340 142.738047 -27.295997
