006 157.467638 777.071858 36.347976
010 239.976913 368.478565 17.700106
012 -255.704056 513.734679 -39.509186
000 -284.779913 850.463135 -10.368378
008 -227.420999 689.884320 -26.008296
014 111.419159 153.649912 3.835333
