005 -311.766402 618.658819 -1.804763
009 428.520646 669.094633 39.868664
012 377.747692 872.037192 14.209010
010 70.703046 553.231299 24.815358
002 -156.693120 824.345907 -27.807289
003 299.105805 436.081328 27.273168
014 -147.096679 149.078047 -8.771272
