006 227.796823 744.126227 26.279792
001 -234.063027 437.975473 -22.148483
000 307.583634 488.063845 5.728155
011 -326.245130 833.281305 -20.310125
007 -251.641032 633.286095 -22.204827
008 123.679755 851.397872 24.882492
014 -16.591559 189.894700 0.115760
