010 142.897316 790.869256 44.428818
005 205.047450 649.062763 41.937606
004 410.360130 450.612219 3.975491
000 314.011361 560.569003 42.687801
013 -385.965164 515.828475 -44.918555
014 67.925375 173.371558 4.292570
