009 200.743002 671.939852 43.411830
003 -129.544214 422.977737 -3.973439
012 124.297060 871.568160 8.531369
013 -172.723864 792.317928 -40.966701
004 -184.354233 597.779408 -3.505868
014 181.878172 141.219783 20.499190
