003 -128.280191 774.734347 -41.803023
010 -203.330570 465.322804 -24.139624
011 331.454268 734.886973 42.382366
001 -340.649265 764.117348 -33.253428
006 216.777534 430.525194 15.261837
014 -72.235829 154.585690 15.314342
