010 365.323095 813.776393 39.691426
007 240.735514 563.859415 28.551691
008 35.568641 847.266746 39.340473
003 250.587987 338.662124 1.383735
012 -386.785086 787.075601 -40.625080
005 -347.523802 544.667333 -37.574414
014 -83.696900 182.235286 -8.305677
