007 -339.057744 778.613162 -43.777381
002 247.932119 505.157016 43.567966
004 -89.216750 765.418555 -2.232197
000 170.346069 669.237839 38.353640
012 -235.553355 481.241844 -23.717079
014 -179.366178 144.471916 -2.355985
