002 -267.779759 866.435326 -13.937808
004 37.319035 651.032343 -0.385085
007 220.864421 463.997312 13.803880
009 301.113279 781.439547 20.757519
003 -325.372613 463.856240 -4.561829
014 434.922981 77.336492 1.991529
