013 -96.378792 820.834744 -20.117444
003 188.638189 441.746680 15.344909
005 288.360543 685.266716 5.399898
010 429.475247 342.898084 10.388793
008 -387.491887 683.167576 -42.935534
004 131.560865 895.370323 22.359009
014 -262.506192 104.927856 -27.815606
