002 230.826944 658.514970 5.554581
011 -316.691042 586.789907 -44.592397
007 342.743482 435.958021 22.508550
009 27.531488 844.872939 25.906031
008 14.442122 415.408204 39.865603
012 -339.924818 900.675919 -14.985734
014 96.436154 149.175286 -11.075711
