005 169.717369 890.347832 2.954448
009 -201.753020 697.202982 -10.428093
001 -145.888211 398.208847 -14.270933
012 280.985999 447.596851 25.152049
010 139.578571 713.955545 10.347108
014 20.027727 165.173118 25.579058
