011 227.206522 710.006698 25.225329
005 321.697402 553.491918 37.095135
003 219.203461 874.902899 13.550364
002 -324.086107 504.922668 -1.779653
010 -249.407153 850.725900 -23.567776
012 -421.408550 725.566391 -1.753752
014 151.404714 134.113750 -22.887302
