007 -166.565180 869.865837 -3.394102
002 -183.869725 572.999499 -24.180500
012 414.875304 681.127347 40.206033
009 114.455852 702.558058 11.396859
005 -253.061966 429.657731 -30.860876
004 142.999727 361.595352 32.639972
014 -132.132060 162.985358 -9.822805
