008 361.210773 797.080355 8.912594
010 -88.744575 785.932598 -19.356672
007 251.535240 563.080041 7.085408
013 -377.199321 753.757172 -33.698534
005 193.773806 390.094543 9.817043
014 -6.655019 153.954294 -27.763884
