007 -169.843103 900.467276 -11.430526
011 -412.929980 585.773281 0.108636
001 191.481957 424.245964 13.161005
002 -237.405103 726.168105 -1.466353
003 248.269813 566.648119 8.878232
014 -442.548148 115.941445 -20.929595
