002 301.091258 849.696616 6.685097
008 -219.478564 372.786041 -2.791995
007 -210.911499 636.619590 -28.063555
010 345.885785 454.899214 25.860227
004 -59.262911 892.944117 44.353630
014 -92.490950 109.833229 22.017631
