012 169.128350 769.429870 10.395838
006 -278.832576 419.045736 -15.616689
002 312.719783 628.104898 11.625040
007 217.341136 912.734536 8.218397
011 379.996205 436.351574 10.837450
010 -299.755909 669.293941 -4.465105
014 91.987367 143.605213 -14.675365
