006 148.363770 643.123314 3.018392
005 -312.565872 818.463378 -7.915086
012 104.675953 430.306772 36.872528
000 -287.811493 466.297540 -0.136457
013 -401.260981 635.855380 -12.987797
014 -250.494071 111.821415 -22.761383
