006 -161.364666 789.403590 -21.650722
005 237.928004 514.834757 43.640907
012 204.250150 693.602731 40.253020
007 -189.183617 548.243613 -42.190308
013 396.186042 455.838253 39.061053
011 201.337546 888.434192 19.244299
014 -89.682963 103.010376 -17.731853
