010 -134.037888 865.359041 -14.331726
012 382.915502 447.989735 7.443811
005 -308.639991 644.198748 -36.964661
001 218.174961 588.882648 2.287997
007 303.601890 768.748820 4.673375
014 -66.893226 172.777129 -19.522842
