000 156.926239 882.536014 13.831431
004 -20.293375 376.345032 -31.773002
005 303.054256 687.976796 1.752547
003 -298.507753 641.382465 -0.974643
011 -435.756587 418.592598 -42.420244
014 277.585460 137.510742 15.176601
