013 193.198370 774.609721 37.992169
000 289.957499 445.024948 7.730807
008 -197.302143 703.893296 0.448711
005 336.635609 662.393004 23.730343
012 -437.734139 485.888903 -43.449253
004 -65.660381 462.253153 29.436729
014 -65.175843 92.792528 -12.204853
