003 -288.544427 754.291740 -18.956778
007 293.283145 795.613365 25.239183
009 207.846702 538.833930 44.587217
010 407.998745 467.647997 5.599042
013 256.885017 328.840888 1.196058
011 -301.484028 454.252637 -21.705154
014 105.884403 170.690852 -14.271353
