005 119.413765 778.764814 37.089847
010 -85.619784 421.578348 -3.635694
006 -244.318168 879.728794 -4.897485
013 -426.705653 555.228613 -6.822603
011 346.162740 533.369543 28.651436
009 353.335944 371.325811 14.290816
014 107.140824 181.853716 1.995559
