002 -307.266459 755.200361 -26.383559
009 -103.302103 446.837521 -29.508615
012 268.973370 819.795570 31.799199
010 158.797723 548.359054 20.605759
001 313.643311 470.798932 23.127335
014 442.897678 148.346778 29.622055
