001 -185.187483 824.622617 -27.658325
002 150.115579 550.407070 31.370962
009 -271.579897 509.925395 -4.443002
008 320.779916 914.551592 13.073016
007 272.767491 367.502738 3.795368
014 -137.036266 145.016683 -16.673693
