010 327.243542 697.209550 31.050211
011 151.293475 777.459736 35.781581
008 -217.715984 819.620289 -15.002214
009 -265.044118 648.889198 -33.502636
013 -247.820575 435.369486 -1.076133
014 -170.678724 124.791179 -25.029329
