005 298.554556 709.684693 21.747949
002 244.869573 911.760836 6.116180
008 335.072499 471.019806 41.012765
013 -366.360840 330.095654 -1.249130
000 -177.041727 453.719098 -29.613922
014 -365.230578 194.008314 -5.308816
