012 -286.103419 695.233835 -8.597198
011 357.424897 677.029613 39.134361
000 226.063756 853.422382 15.643770
002 -131.390522 376.885966 -8.489040
004 356.578733 364.277070 25.410339
014 70.512398 86.147933 10.332295
