012 -318.567451 818.769629 -28.664121
010 -358.912811 568.526731 -39.882196
009 -324.711453 375.819447 -7.481077
008 -53.498839 443.814990 -43.743877
013 34.274915 761.949503 13.126990
014 -97.992151 109.657394 19.152670
