013 -74.592912 785.400481 -39.953416
005 96.508425 557.169779 43.634700
004 212.688821 378.543649 24.278353
008 -339.675941 350.336584 0.711300
009 347.572588 867.503586 1.333844
003 -325.165373 597.574152 -0.658115
014 265.008947 113.974209 27.328105
