011 427.627796 654.813962 6.982065
010 270.187171 422.999128 8.528278
008 -116.941851 701.103106 -28.013580
003 -146.436643 927.993060 0.080580
005 286.249747 784.953599 15.358967
014 206.928476 115.507753 14.526621
