013 363.260511 836.354548 24.646113
004 -32.763086 487.329077 38.905446
008 -164.417750 810.590507 -34.709869
011 -290.337939 718.196395 -32.301085
007 -313.389908 463.700770 -25.329206
014 404.266184 158.779916 20.189679
