013 -281.909048 801.492696 -22.156322
006 176.686605 727.950256 21.444147
001 -270.438950 563.785293 -29.170344
009 169.201683 490.509843 16.996139
012 -393.775771 429.965480 -17.641715
010 -37.204086 906.851305 -9.681444
014 293.005817 139.860773 22.751027
