012 -299.372371 715.796621 -31.437143
010 -409.797708 505.531739 -32.720047
007 204.741836 858.143789 13.674773
006 293.616415 516.777826 44.682981
009 232.985529 715.166373 25.818527
000 -199.649763 798.388513 -32.027046
014 52.250508 102.812567 -9.865478
