007 168.933165 723.655227 33.717299
008 252.837652 478.166404 11.455208
001 -286.798885 600.893176 -38.397568
013 -218.740555 786.178392 -15.211418
009 -315.317957 461.463918 -39.908014
004 469.981320 597.238399 35.864569
014 -439.511151 168.382702 -17.734887
