009 65.340664 808.893717 43.625775
012 371.188410 480.539733 12.707303
000 -174.393778 682.392006 -24.003906
008 -156.389277 524.203334 -16.095892
013 327.772886 687.348599 8.119638
006 -290.436920 393.585916 -12.263868
014 -25.829851 154.904669 1.690014
