001 246.323985 786.085216 37.019004
003 -318.416222 668.108751 -15.992997
002 -161.494829 436.357153 -25.723087
012 434.475610 715.275114 44.115147
011 -404.762101 903.826893 -8.485036
008 -74.538460 804.929148 -22.047645
014 140.866274 79.402687 7.247837
