008 421.114000 745.767890 35.790394
009 -430.673329 460.275695 -35.421804
000 -254.732822 598.312602 -38.494929
010 87.627635 892.698469 13.410638
013 -64.140695 678.500056 -28.938465
014 162.788580 164.814950 -14.669301
