008 -102.221722 647.598489 -20.988932
001 -338.401457 646.764428 -38.548968
007 131.996908 423.528824 20.031859
012 333.158909 809.145277 33.952329
002 335.344763 637.015355 23.114942
014 137.516736 134.891864 18.817506
