013 400.361279 766.609616 23.085460
007 276.569776 546.372898 33.752047
000 107.348421 738.141014 40.126688
010 -305.331196 885.595163 -19.338147
003 -235.423693 446.426995 -26.965093
009 -320.849419 719.362814 -31.931182
014 -177.970808 176.924988 5.171061
