007 310.466188 749.646960 34.844534
006 114.284789 445.478499 22.381141
005 -295.698387 849.802154 -24.848849
004 459.480254 656.661155 15.370332
009 -136.484947 590.088852 -6.399886
014 -442.463373 123.341404 -15.577064
