006 315.153154 861.382425 3.297930
001 -171.146569 575.081781 0.313665
011 282.991493 518.775018 7.026062
004 -513.853622 675.499832 -9.560630
012 -158.023043 814.217523 -4.354750
013 -344.365843 441.602039 -10.373582
014 348.236711 94.915996 6.319233
