010 20.339472 862.840281 29.699771
013 -190.751783 695.366036 -28.121812
006 267.814267 433.956596 7.376240
003 -265.268300 548.426712 -39.874659
007 -348.058751 462.360845 -39.055978
014 -5.757321 94.164311 0.688484
