010 58.325041 669.569842 31.852468
000 -182.436780 474.749627 -4.549937
011 -197.395836 815.651545 -14.283582
006 347.397862 600.143394 27.123712
012 418.517172 363.818812 11.780411
014 328.411070 157.118103 12.761049
