011 -374.008671 719.900167 -28.813534
001 163.658016 700.381242 23.415173
005 228.255670 506.995352 38.930602
009 191.342851 858.285931 20.115691
008 -263.205997 519.977554 -34.768091
014 -417.085764 131.165094 -28.669562
