012 337.480945 773.558106 34.282489
007 -301.794574 650.765011 -38.439408
013 -232.966320 924.660165 -6.487130
005 247.773114 459.426928 28.094665
009 -39.142486 743.217676 -6.416436
008 423.061044 361.879250 9.982784
014 178.323747 182.150177 -9.163364
