009 -372.821999 846.107135 -21.643956
011 379.636392 542.353950 19.167056
007 -262.998907 567.016175 -3.692215
004 110.562234 801.504765 31.458037
003 -273.417638 433.248646 -8.083121
000 314.256255 685.078223 9.967905
014 473.921968 142.723983 25.749422
