007 239.359775 761.714420 29.013778
010 -356.081842 738.109117 -23.474567
009 84.388658 539.606153 7.916803
000 174.787861 372.993777 5.049618
002 -160.166405 846.730419 -11.774156
014 15.087312 148.318433 24.708605
