011 370.427681 896.256482 3.020325
013 -123.408053 539.451503 -28.772253
003 282.749533 650.368505 31.046494
000 -200.276540 733.659304 -28.193023
007 354.740546 496.576780 39.540229
008 -59.944943 861.331780 -2.394715
014 -457.838846 134.610256 -17.901742
