012 -220.817377 629.238979 -12.869608
009 -383.893425 897.470662 -10.922093
006 -338.921525 446.315704 -35.490021
010 -55.631167 776.642503 -40.455497
008 310.409372 434.118942 26.633253
000 123.302865 588.314106 29.557942
014 -28.193727 104.411831 -13.502207
