007 -258.165108 686.312427 -13.687799
009 202.019069 570.589447 39.630422
006 220.473677 886.240608 7.228739
010 397.220959 431.978322 9.693638
012 -255.584603 864.979326 -8.950831
014 -488.800775 200.318833 -1.914036
