001 252.994716 758.344881 8.642246
000 -182.040122 462.612646 -12.570740
011 450.597953 411.993437 40.384302
003 192.768561 876.173890 6.944070
009 292.251548 539.413177 18.103422
013 -189.802842 761.842291 -29.862436
014 -352.472666 113.053358 -25.629152
