010 -205.819897 873.598776 -16.639023
004 360.312682 859.468805 7.612501
001 -141.829823 624.912771 -6.429904
009 -394.853182 830.501811 -38.444326
002 197.908947 422.199511 16.105709
014 220.552221 165.484611 1.454455
