006 276.634391 766.064499 44.569140
011 -174.656059 437.938839 -25.361856
013 -50.987965 815.893905 -40.119299
012 -38.515355 559.232645 -27.200426
008 448.321973 421.448528 3.755369
009 130.044920 378.523733 22.149801
014 65.331659 187.025026 0.727871
