001 -268.235594 756.243918 -35.361455
011 233.151312 817.639745 34.379961
010 236.583241 369.057211 1.937193
002 -327.626800 354.082834 -4.216122
003 -347.423163 616.065576 -42.082986
008 -9.597348 881.463414 32.589829
014 181.983733 178.249234 -11.386029
