002 -150.978785 795.588343 -35.975006
012 -171.356726 511.108792 -20.117488
000 -248.599910 408.241437 -16.022021
001 339.320782 779.568807 34.723577
006 326.866117 476.188190 33.777832
014 -181.714943 135.176383 10.877585
