007 268.425911 714.534582 32.391692
003 -150.305354 482.912119 -27.174362
006 -233.373932 719.844679 -12.450998
011 -39.775652 853.208688 -26.966997
013 309.845131 437.579258 41.299291
014 -56.443767 167.991252 -21.903871
