011 361.966119 680.135506 40.341570
003 -230.671332 636.456438 -3.204352
000 -282.851351 468.690154 -7.932079
005 290.486930 474.181608 22.577543
007 -99.449613 838.074937 -28.955847
010 -424.423665 815.278554 -27.369497
014 363.502678 120.724369 15.644359
