006 -236.219455 905.866823 -1.509300
008 342.886277 625.224587 4.861711
000 273.994790 371.393453 10.567250
005 217.037747 742.123321 14.364666
013 -308.508750 566.338025 -23.347900
014 475.569504 64.862393 0.564269
