009 383.156863 780.152687 13.619180
012 320.206901 597.409453 32.073325
001 -248.815797 773.280337 -43.756548
007 -319.779409 517.945360 -39.708747
004 129.858650 841.093734 3.804154
006 234.215405 391.855719 7.914724
014 -353.369530 138.211347 -29.451586
