001 159.848334 794.986756 30.163784
009 -412.464028 851.246237 -44.121349
002 203.908878 351.923993 3.791766
012 -425.087544 529.869828 -34.253727
008 -36.863222 909.661157 -9.256204
013 -147.117638 577.085513 -11.779368
014 361.175914 107.607763 24.761979
