009 -368.415047 748.378022 -22.578502
012 295.223492 676.567121 39.610710
011 -99.957766 799.474275 -22.290382
003 -256.622231 484.412222 -31.913861
010 411.876194 526.392221 32.163550
014 107.063954 99.802204 24.403376
