006 -190.215754 844.942015 -2.443398
000 319.963475 635.292058 28.329856
004 498.930975 406.736911 32.623664
012 232.772668 411.032313 6.294907
008 294.989330 777.578000 37.952885
014 -21.237151 170.774835 -12.404943
