000 229.249401 785.755269 39.183199
003 -235.305393 367.888622 -3.017219
006 328.781313 532.001601 41.750994
012 -277.537851 633.577670 -1.527765
013 -217.211338 776.115076 -2.197063
014 -414.192123 114.177022 -12.475940
