005 -261.638595 845.200631 -7.981345
007 171.865255 805.004113 27.970433
009 -337.820373 472.051976 -43.208850
011 158.565841 548.074816 35.358800
004 -101.445812 534.826031 -38.475863
014 -354.171731 117.064158 -20.041617
