002 250.113270 783.109665 36.461902
003 270.997113 588.094403 35.367096
001 -245.005144 502.125089 -42.777325
010 -414.297493 909.783632 -8.220729
013 428.840033 548.748250 35.205830
009 -33.067753 829.757098 -20.954017
014 107.493909 147.645964 -23.477627
