000 -283.138660 667.555602 -12.065997
004 381.211073 910.557183 32.609411
005 326.992049 630.527641 1.355475
008 118.866355 827.638141 39.036905
009 -205.444806 400.015477 -39.899526
014 217.287694 126.727566 24.314756
