008 -54.606169 737.898408 -24.154737
011 -29.309992 571.177593 -8.390083
006 -298.361004 918.075515 -1.110152
012 -379.405427 668.755672 -1.348654
005 287.586026 483.477443 25.481186
001 -274.265486 467.501414 -10.299404
014 58.585989 133.670309 -5.106330
