001 -286.523906 618.242425 -2.464270
007 -171.129298 822.473818 -27.724739
012 159.728004 516.679808 25.785660
003 245.934348 764.940895 41.989378
004 -270.086691 404.927993 -11.195797
011 404.189181 459.101080 11.234440
014 429.926445 181.892597 11.066098
