013 -274.594489 797.285357 -4.372281
007 273.570845 680.263389 25.531873
003 192.435516 467.111847 36.502596
009 429.951812 490.340500 31.151264
006 245.156217 862.980713 11.015569
004 -57.094738 476.715833 38.751972
014 137.582160 148.777798 -9.783005
