005 -236.931634 861.416792 -16.957100
012 215.954971 596.904253 17.117134
001 234.394739 386.616956 11.821410
006 -195.184658 623.982255 -38.730772
011 -400.612786 527.726541 -39.350223
013 321.731821 834.755726 17.882878
014 169.161218 155.361567 26.777331
