008 -246.494821 885.343300 -29.178933
003 -171.995081 566.747374 -8.531469
006 -251.475547 405.385407 -9.571437
005 330.412031 573.508558 31.142479
007 217.675580 902.691224 8.363927
013 -384.249931 783.006527 -12.383052
014 -295.990311 133.931887 -19.131400
