011 366.862666 845.014063 19.838909
010 -337.060335 540.379000 -17.623539
008 115.543667 569.857642 44.880296
013 -205.882960 830.713716 -29.119169
007 -279.136118 708.244495 -19.973279
014 -122.073713 191.764883 5.477995
