001 -228.841239 771.091946 -42.068465
000 -227.080015 551.344698 -27.545806
004 198.059592 602.795482 43.708372
009 -345.790125 431.823536 -40.987478
010 273.003261 763.684358 13.455494
014 -55.976565 109.424849 -17.083429
