006 -210.542738 696.246456 -14.906469
012 301.078103 536.721008 44.191316
011 -127.295239 403.034841 -31.825515
009 -446.893320 418.713364 -3.015755
001 -132.642419 842.284568 -21.577877
013 303.505402 792.735756 40.047737
014 -27.889777 136.859634 -9.513559
