013 300.379164 835.878818 2.515326
000 305.350113 670.272520 12.456929
002 314.006854 547.390011 13.489423
006 -165.972628 829.949779 -16.244131
012 -317.654316 571.914795 -41.539513
004 468.427476 401.760183 37.532509
014 347.721598 147.514963 16.579111
