009 -399.125250 697.914301 -10.719394
008 161.471802 826.371708 12.127752
013 222.184285 675.136045 16.531891
000 -340.244548 458.362110 -31.018980
011 -363.610616 894.883184 -5.709666
012 353.152910 560.996875 31.050550
014 111.164743 119.615815 -14.934701
