013 -398.757523 922.347630 -3.142245
003 200.190821 704.497795 25.252879
012 200.603592 934.389442 1.675619
000 -319.834462 611.339244 -32.597447
009 -438.451303 459.042141 -18.992262
001 223.955766 469.563274 10.543011
014 298.588004 117.965580 15.866762
