001 293.606456 725.210037 5.601681
005 -127.358210 366.597937 -3.054456
013 -169.956719 754.195453 -29.733990
008 31.754784 558.923515 4.214399
007 327.217100 879.019185 15.226870
012 429.541630 547.456362 33.091193
014 100.768591 119.922561 2.064379
