008 -100.069683 630.694921 0.432744
000 -139.314493 830.579818 -11.435762
005 217.716000 389.518099 3.010926
011 397.611818 586.006196 23.453925
010 -435.585394 567.522943 -43.584033
009 376.257394 781.310371 26.717211
014 70.855513 116.846524 17.027773
