002 281.909366 738.634755 36.978191
012 -111.912344 805.445025 -14.755263
004 423.840895 484.281878 16.185697
010 -295.412132 625.198282 -2.416721
013 -401.364982 443.887873 -23.241314
014 411.748771 157.472973 8.353137
