010 -206.698924 881.136521 -21.344435
001 -220.995132 522.774530 -41.372398
005 173.270808 685.820705 20.038618
004 38.826176 911.916130 -15.760764
009 -373.277289 360.824283 -0.985197
013 -280.538059 761.685614 -38.019739
014 -302.993977 122.958489 -9.410172
