007 281.580752 764.458957 43.557388
003 235.546246 417.466800 15.695090
005 -332.658889 740.535330 -37.438138
002 -164.059283 493.794901 -1.229427
008 -56.854156 767.876857 -24.669034
014 -140.469171 185.780698 4.381563
