006 -268.358663 778.419058 -42.577268
011 203.370100 807.838082 9.434410
004 -36.627825 444.533845 25.738348
012 -268.623372 439.976729 -36.028902
001 277.708520 630.128120 6.719410
014 478.515773 174.426538 16.034086
