000 -254.964809 780.914830 -30.170825
008 371.978382 475.259888 32.280415
011 -18.991865 826.690293 -33.825473
013 397.368244 846.395847 7.203413
003 -362.661742 510.670119 -44.157508
014 164.838377 120.828919 -16.445810
