000 -243.519489 820.879443 -14.969190
013 -266.240063 556.320853 -19.555707
002 206.738469 593.258307 28.197507
004 307.289730 869.204137 23.261722
012 -375.320400 403.730820 -21.551638
014 -163.133841 104.230747 -24.364337
