002 -176.462722 754.469893 -43.328192
000 -223.385653 554.862389 -33.033673
011 -332.000135 414.026442 -14.519168
009 378.398079 426.920780 27.916724
012 269.430680 543.844745 28.945581
014 -267.359970 165.900522 -8.100328
