013 -299.710638 821.194671 -6.456792
000 -268.278969 398.353636 -13.694683
009 414.916580 511.775393 39.164040
006 -138.531174 570.896603 -30.154252
012 106.421075 806.945658 32.942539
014 -99.039982 143.618651 -3.800379
