013 -320.338180 701.938022 -7.426879
007 196.985704 372.179814 2.727732
005 -127.775795 811.823251 -32.340414
000 -198.415351 509.495077 -5.706233
008 390.902336 545.896905 2.443000
014 -169.742523 149.849237 -14.243258
