013 96.134786 732.844072 25.474385
001 -224.456339 458.846350 -19.845064
011 -141.397217 832.784784 -4.096302
000 313.077908 639.590782 26.377382
002 323.574379 358.339502 4.209572
010 -370.879778 712.928675 -4.729773
014 80.348105 170.712356 2.702153
