011 -98.505859 675.032545 -27.382321
002 -266.448185 893.744292 -1.180241
006 -311.229918 521.331648 -14.500336
004 -454.795087 747.415640 -9.347694
008 304.697811 446.818803 21.877870
012 395.831982 655.469946 21.060592
014 -78.878756 167.937003 -7.337516
