007 338.831969 724.970655 31.309095
010 74.229262 856.355036 30.044020
004 -48.452950 627.125890 -5.113209
003 -160.050482 488.433957 -19.998142
013 428.780426 449.673248 25.002001
014 -61.308144 111.346236 25.384239
