005 213.342901 766.177030 16.953157
001 -309.238078 848.217396 -1.033709
013 -394.375762 439.070763 -18.426165
008 -446.390641 659.307798 -22.173706
010 346.768102 356.771767 3.166437
014 -122.301550 100.270541 0.381530
