011 437.742244 816.446477 40.778392
009 -311.329575 448.527113 -42.269344
000 -193.506453 582.429375 -16.677597
002 185.959935 443.566488 29.083256
001 -141.920168 789.914421 -26.040607
014 -87.233504 129.308936 -13.473594
