012 225.340739 734.807163 16.222097
008 -166.216718 771.112827 -31.931648
005 -253.103971 382.105236 -14.530548
010 433.996906 480.864750 24.945140
000 159.890146 903.285992 4.535575
004 -293.340888 579.388336 -9.535302
014 -31.643390 132.940894 18.034055
