012 215.454374 809.882758 42.987965
001 200.672829 617.250709 36.714841
003 328.643773 464.922232 20.356876
010 50.842730 901.667063 13.710632
002 -322.849027 398.144713 -12.460069
007 -264.077287 681.396377 -8.720260
014 -12.407674 135.753128 13.466318
