011 24.979744 805.110655 4.434249
013 -305.471934 703.629553 -43.743960
007 -209.324195 410.759426 -13.976842
001 227.851050 703.882990 26.526641
008 -423.858053 649.393758 -42.364284
009 -331.029395 912.558593 -16.160805
014 108.424677 123.822923 12.606939
