005 -270.308103 841.695443 -11.048491
010 -250.798468 563.661935 -32.682595
012 -377.728608 394.187198 -15.121332
006 226.783221 768.493255 42.600739
008 177.626274 449.554356 22.399226
014 246.006596 158.065055 17.848818
