000 267.651424 796.508761 15.900871
006 331.375507 505.240602 44.279736
007 -309.757203 614.251311 -42.021363
011 -395.439013 899.482490 -14.001225
013 93.034811 584.829068 23.502504
004 -443.697443 534.759215 -12.752740
014 151.081559 133.315147 10.414331
