002 -285.815949 761.638454 -31.848970
011 -179.636814 898.671339 -0.703427
013 -417.142891 604.511304 -43.341027
003 266.142374 620.938332 15.299604
008 -158.803245 384.079972 -29.131631
012 -406.556509 411.594978 -38.981005
014 -123.695511 148.995838 -13.164600
