005 119.635826 767.497693 43.270683
012 -269.514856 759.508325 -18.914244
008 -449.418657 667.080398 -0.965184
013 -80.390594 500.758490 -38.169924
009 390.885040 824.986096 39.991400
002 329.371506 597.329165 19.858354
014 -21.766459 108.651231 13.954041
