013 156.693658 644.810550 17.521578
001 158.846536 814.525544 16.171786
012 -360.771495 654.288818 -40.346188
011 174.041373 475.957104 17.293325
009 316.374297 332.120123 3.491713
005 -344.798317 466.128382 -39.097104
014 1.172930 155.549910 -5.357168
