013 292.929922 714.465432 21.636701
003 -255.054569 867.051065 -14.547413
000 -198.412600 491.109861 -0.184610
001 314.365962 514.587281 37.201081
010 -130.312009 341.555444 -1.771889
002 -247.160375 662.273118 -13.800650
014 105.548107 78.414337 -0.247942
