012 187.723374 788.503343 22.409231
013 -126.417723 534.049300 -2.469972
010 -363.684384 363.636939 -12.112635
001 283.392616 488.724649 24.166390
004 450.788136 805.156330 9.605912
000 -261.470791 762.786560 -29.867423
014 69.492328 116.200748 -12.985280
