006 346.970637 735.478685 31.545188
009 -65.743100 444.127379 -42.854286
001 -195.171054 695.196488 -3.765782
007 318.391425 518.315882 14.254703
011 -151.205273 852.489873 -11.509101
014 -335.951574 94.353593 -15.269899
