010 99.569056 651.462808 7.783716
003 -253.624366 664.913173 -40.282068
007 271.989836 415.840322 12.940872
012 -119.942303 867.748588 -14.809013
011 407.759777 808.264193 40.847864
000 -307.969582 354.474357 -3.705700
014 -320.378321 116.401686 -27.251418
