009 195.090301 632.563692 15.963672
013 210.254535 459.128722 36.632244
007 135.323011 794.111301 40.325067
002 -320.290038 473.596454 -33.015341
006 -281.572089 828.450652 -17.513024
008 -420.367591 682.682723 -37.117286
014 132.679908 195.262352 3.632593
