008 -187.442273 683.464615 -33.637154
006 95.514965 602.716290 42.068057
005 300.070904 395.486570 1.202225
007 180.459454 892.136430 4.492082
012 374.819349 588.370337 25.408121
003 -353.833419 486.046227 -37.560798
014 219.975943 129.796919 27.792377
