1 0.00114383 -0.21599 -0.00115052 1 0.642803
1 0.00114383 -0.21599 -0.00115052 1 0.642803
1 0.00114398 -0.216175 -0.00115036 1 0.642603
1 0.00114383 -0.216175 -0.00115022 1 0.642603
1 0.00114383 -0.216175 -0.00115022 1 0.642603
0.999999 0.00113444 -0.217369 -0.00114081 1 0.642742
0.999999 0.0011344 -0.217369 -0.00114076 1 0.642742
0.999999 0.00112973 -0.217372 -0.00113621 1 0.642741
0.999999 0.00112973 -0.217372 -0.00113621 1 0.642741
0.999999 0.0011262 -0.217441 -0.00113233 1 0.642963
0.999999 0.0011262 -0.217441 -0.00113233 1 0.642964
