14 0.982706 0.112041 214.871 833.043
7 0.978772 16.4988 523.101 610.664
8 0.976059 2.00035 463.791 387.919
10 0.969504 -43.377 243.852 462.73
11 0.955986 64.2239 692.103 215.598
6 0.973983 -14.4464 358.845 159.401
