239.337 58.7409 0.0286203 0.0109679 0.000715485 -0.000221306
241.086 58.8606 0.0524698 0.00359104 0.0016353 0.00030303
244.652 59.317 0.10698 0.0136921 -7.73849e-05 0.000386187
248.132 60.2025 0.1044 0.0265649 0.00238589 0.000313653
254.263 61.4365 0.18393 0.03702 0.0026199 0.00113067
263.305 63.9268 0.27126 0.074709 0.00352172 0.00136557
276.26 67.9344 0.388651 0.120228 0.00288177 0.00173141
292.417 73.8658 0.484709 0.177942 0.00410672 0.002232
313.137 82.2772 0.6216 0.252342 0.00422641 0.00280188
338.553 93.8018 0.76248 0.345738 0.00453238 0.00355373
369.005 109.275 0.91356 0.464196 0.00506159 0.00255942
405.081 127.592 1.08228 0.54951 0.00543961 0.000253791
447.201 146.191 1.2636 0.55797 0.00543873 -0.00409409
495.364 160.241 1.44489 0.4215 0.00235887 -0.009945
546.148 163.241 1.52352 0.09 -0.00211772 -0.0125172
594.579 152.333 1.45293 -0.32724 0.00203406 0.0103599
645.27 152.936 1.52073 0.0180904 -0.0316234 -0.00100801
