1 -0 0 -0 1 0
1 -0 0 -0 1 0
1 -0 0 -0 1 0
1 -0 0 -0 1 0
1 -0 0 -0 1 0
1 -0 0 -0 1 0
1 -0 0 -0 1 0
1 -0 0 -0 1 0
1 -0 0 -0 1 0
1 -0 0 -0 1 0
1 -0 0 -0 1 0
1 -0 0 -0 1 0
1 -0 0 -0 1 0
1 -0 0 -0 1 0
1 -0 0 -0 1 0
1 -0 0 -0 1 0
1 -0 0 -0 1 0
1 -0 0 -0 1 0
1 -0 0 -0 1 0
1 -0 0 -0 1 0
1 -0 0 -0 1 0
1 -0 0 -0 1 0
1 -0 0 -0 1 0
1 -0 0 -0 1 0
1 -0 0 -0 1 0
1 -0 0 -0 1 0
1 -0 0 -0 1 0
1 -0 0 -0 1 0
1 -0 0 -0 1 0
1 -0 0 -0 1 0
1 -0 0 -0 1 0
1 -0 0 -0 1 0
1 -0 0 -0 1 0
1 -0 0 -0 1 0
1 -0 0 -0 1 0
1 -0 0 -0 1 0
1 -0 0 -0 1 0
1 -0 0 -0 1 0
0.999988 0.00443929 -1.84664 -0.00443666 1 3.36905
0.999982 0.00519868 -2.60617 -0.00519483 1 3.89259
0.999982 0.0051984 -2.60617 -0.00519455 1 3.89259
0.999972 0.00594224 -3.06267 -0.00593478 1 4.57058
0.999965 0.00620696 -3.2596 -0.00619608 1.00001 4.77155
0.999964 0.00621333 -3.2631 -0.00620227 1.00001 4.78138
0.999964 0.00621311 -3.26311 -0.00620225 1.00001 4.78138
0.999964 0.00621311 -3.26311 -0.00620225 1.00001 4.78138
0.999964 0.00621278 -3.26321 -0.00620201 1.00001 4.78135
0.999964 0.00621272 -3.26321 -0.00620196 1.00001 4.78135
0.999964 0.00621293 -3.26321 -0.00620124 1 4.78134
0.999964 0.00621219 -3.26322 -0.00620074 1 4.78134
0.999964 0.00621162 -3.26322 -0.00620018 1 4.78134
0.999964 0.00621162 -3.26322 -0.00620018 1 4.78134
0.999965 0.00621087 -3.26323 -0.00619977 1 4.78133
0.999964 0.00613651 -3.2773 -0.00612072 1 4.76667
0.999964 0.00613988 -3.27943 -0.00612383 1 4.76691
0.999964 0.00614088 -3.27945 -0.00612521 1 4.76699
0.999965 0.00614099 -3.27945 -0.00612533 1 4.76699
0.999964 0.00614195 -3.27967 -0.00612529 1 4.76697
0.999964 0.00614138 -3.27967 -0.00612603 1.00001 4.76704
0.999965 0.00614083 -3.27967 -0.00612849 1.00001 4.76707
0.999964 0.00614151 -3.27974 -0.00612885 1.00001 4.76711
0.999964 0.00614151 -3.27974 -0.00612885 1.00001 4.76711
0.999965 0.00613963 -3.27979 -0.0061295 1.00001 4.76718
0.999965 0.00614074 -3.2798 -0.0061312 1.00001 4.76724
0.999965 0.00614074 -3.2798 -0.0061312 1.00001 4.76724
0.999966 0.00614207 -3.2798 -0.00613344 1.00001 4.76725
0.999966 0.00614234 -3.27988 -0.00613364 1.00001 4.76738
0.999966 0.00614162 -3.28006 -0.00613402 1.00001 4.76742
0.999966 0.00614058 -3.28003 -0.00613424 1.00001 4.76763
0.999965 0.00614103 -3.28003 -0.00613465 1.00001 4.76764
0.999965 0.00614094 -3.28003 -0.00613461 1.00001 4.76764
0.999965 0.00614094 -3.28003 -0.00613461 1.00001 4.76764
0.999964 0.00614246 -3.28006 -0.00613494 1.00002 4.76804
0.999965 0.00614375 -3.28012 -0.00613596 1.00001 4.76809
0.999965 0.00614375 -3.28012 -0.00613596 1.00001 4.76809
0.999965 0.00614375 -3.28012 -0.00613596 1.00001 4.76809
0.999965 0.00614375 -3.28012 -0.00613596 1.00001 4.76809
0.999965 0.00614376 -3.28012 -0.00613597 1.00001 4.76809
0.999964 0.00614428 -3.28012 -0.00613724 1.00002 4.7681
0.999965 0.00614603 -3.2801 -0.00614131 1.00002 4.76864
0.999961 0.00614465 -3.28008 -0.00613734 1.00002 4.76878
0.999961 0.00614478 -3.28008 -0.00613748 1.00002 4.76878
0.999961 0.00614503 -3.28011 -0.0061379 1.00002 4.76879
0.99996 0.00614759 -3.28014 -0.00613955 1.00002 4.76904
0.99996 0.00614761 -3.28015 -0.00614059 1.00002 4.76909
0.99996 0.00614891 -3.28015 -0.00614225 1.00002 4.7691
0.99996 0.00614891 -3.28015 -0.00614225 1.00002 4.7691
0.99996 0.00614891 -3.28015 -0.00614225 1.00002 4.7691
0.99996 0.00614891 -3.28015 -0.00614225 1.00002 4.7691
0.99996 0.00614891 -3.28015 -0.00614225 1.00002 4.7691
0.99996 0.00614891 -3.28015 -0.00614225 1.00002 4.7691
0.99996 0.00614959 -3.28019 -0.00614331 1.00003 4.76912
0.99996 0.00615031 -3.28032 -0.00614406 1.00003 4.76912
0.99996 0.00615033 -3.28032 -0.00614407 1.00003 4.76912
0.99996 0.00615063 -3.28033 -0.00614473 1.00003 4.76913
0.999959 0.00615227 -3.281 -0.00614819 1.00003 4.77036
0.999959 0.00615334 -3.28142 -0.00614919 1.00003 4.77043
0.999959 0.00615409 -3.28176 -0.0061499 1.00003 4.77035
0.999959 0.00615409 -3.28176 -0.0061499 1.00003 4.77035
0.999959 0.00615556 -3.2818 -0.00615426 1.00003 4.77038
0.999959 0.00615556 -3.2818 -0.00615426 1.00003 4.77038
0.999959 0.00615556 -3.2818 -0.00615426 1.00003 4.77038
0.999959 0.00616294 -3.28452 -0.00616075 1.00003 4.77094
0.999959 0.00616288 -3.28452 -0.00616148 1.00004 4.77095
0.999959 0.00616322 -3.28452 -0.00616272 1.00004 4.77096
0.999959 0.00616322 -3.28452 -0.00616272 1.00004 4.77096
0.999959 0.00616322 -3.28452 -0.00616273 1.00004 4.77096
0.999959 0.00616322 -3.28452 -0.00616273 1.00004 4.77096
0.999959 0.00616322 -3.28452 -0.00616273 1.00004 4.77096
0.999959 0.00616391 -3.28461 -0.00616354 1.00004 4.77097
0.999959 0.00616448 -3.28477 -0.00616439 1.00004 4.7709
0.999959 0.00616448 -3.28477 -0.00616439 1.00004 4.7709
0.999958 0.00616436 -3.28479 -0.00616579 1.00004 4.77092
0.999958 0.00616436 -3.28479 -0.00616579 1.00004 4.77092
0.999958 0.00616436 -3.28479 -0.00616579 1.00004 4.77092
0.999958 0.00616499 -3.28478 -0.00616636 1.00004 4.77094
0.999958 0.00616499 -3.28478 -0.00616636 1.00004 4.77094
0.999958 0.00616517 -3.28479 -0.00616692 1.00004 4.77095
0.999958 0.00616517 -3.28479 -0.00616692 1.00004 4.77095
