14 0.982836 -0.480957 214.974 855.608
0 0.976649 26.6098 518.828 594.758
10 0.968804 -53.4667 227.544 471.533
13 0.97777 6.8462 450.843 392.868
11 0.956604 63.9793 693.006 217.024
6 0.973998 -14.0826 358.379 160.678
