0.999999 0.00112234 -0.217524 -0.00112817 1 0.643233
0.999999 0.00112234 -0.217524 -0.00112817 1 0.643233
0.999999 0.00112172 -0.217699 -0.00112778 1 0.643313
0.999999 0.00112172 -0.217699 -0.00112778 1 0.643313
