14 0.980114 -0.382467 455.047 880.163
12 0.977843 -5.52101 341.616 594.759
11 0.966568 48.9418 638.732 639.422
4 0.980355 17.5021 253.844 446.81
8 0.975493 13.7382 484.331 417.775
0 0.973281 -7.2884 361.392 175.459
10 0.956663 70.906 694.51 211.867
