332.18 137.054 0.0726901 0.0173698 0.00317609 0.000705611
338.132 138.417 0.17856 0.0408902 0.00133833 0.000319482
345.571 140.135 0.223171 0.0515396 0.00300325 0.000446416
356.347 142.349 0.323279 0.0664201 0.00155973 -0.000405904
368.856 144.112 0.37527 0.05289 0.00130861 -0.0003996
382.819 145.431 0.41889 0.03957 0.00277018 0.0028161
399.86 149.879 0.51123 0.13344 -0.00167487 0.00612631
415.04 161.134 0.455401 0.33765 -0.000645337 0.0154332
429.503 189.537 0.433889 0.85209 0.00273513 0.0179586
