438.234 150.841
444.265 152.857
452.598 155.566
466.066 160.949
483.525 166.153
504.278 170.224
527.323 172.322
550.183 171.162
571.266 167.596
588.233 162.852
604.619 163.255
618.622 178.6
633.809 212.404
629.549 245.592
604.282 274.128
573.729 321.766
539.488 340.642
503.961 344.123
469.4 344.728
435.783 344.92
402.463 344.772
369.786 344.744
337.289 345.265
303.096 349.508
271.151 375.03
241.379 414.603
263.713 429.97
284.7 461.532
317.145 504.207
361.592 540.172
406.737 587.756
412.634 568.078
415.739 561.208
418.725 575.4
415.654 584.787
406.196 593.774
389.71 602.27
369.049 613.248
343.939 626.781
310.109 645.026
271.171 668.791
233.459 711.47
193.031 780.446
214.388 821.717
231.804 801.125
249.882 802.455
261.739 825.672
259.558 822.76
252.343 833.694
245.729 836.323
240.128 837.145
236.987 836.475
234.011 835.851
230.312 834.876
226.409 834.244
222.182 833.854
217.62 834.116
212.797 835.266
207.51 835.686
202.349 836.685
196.747 837.853
192.102 838.356
188.578 838.37
185.305 838.194
182.849 837.953
180.455 837.816
180.485 838.038
181.081 838.138
181.41 838.344
181.444 838.918
182.466 838.704
182.695 838.8
182.295 838.873
182.244 838.932
182.337 838.804
182.746 838.829
181.915 838.792
182.113 839.033
