0.999975 -0.00699591 3.45665 0.00699564 0.999977 -1.86584
0.999972 -0.00738865 3.66609 0.0073879 0.999976 -2.05165
0.999969 -0.00750409 3.73652 0.00750355 0.999975 -2.09965
0.99997 -0.00750098 3.73616 0.00750013 0.999975 -2.10011
0.99997 -0.00752799 3.78261 0.00752748 0.999977 -2.08203
