1 1 13
1 1 13
1 1 13
1 1 13
1 1 13
1 1 13
1 1 13
1 1 13
1 1 13
1 1 13
1 1 13
1 1 13
1 1 13
1 1 13
1 1 13
2 2 -1
2 2 -1
2 3 0
2 2 -1
2 2 -1
2 1 0
1 1 0
1 1 0
1 1 0
1 1 0
1 1 0
1 1 0
1 1 0
1 1 0
1 1 0
1 1 0
1 1 0
1 1 0
1 1 0
1 1 0
1 1 0
1 1 0
1 1 0
1 1 0
1 1 0
1 1 0
1 1 0
1 1 0
1 1 0
1 1 0
2 2 -1
2 3 0
2 2 -1
2 3 2
2 2 -1
2 1 2
1 1 2
1 1 2
1 1 2
1 1 2
1 1 2
1 1 2
1 1 2
1 1 2
1 1 2
1 1 2
1 1 2
1 1 2
1 1 2
1 1 2
1 1 2
1 1 2
1 1 2
1 1 2
1 1 2
1 1 2
1 1 2
1 1 2
1 1 2
1 1 2
2 2 -1
3 2 -1
2 3 2
2 3 10
2 2 -1
2 2 -1
2 3 9
2 2 -1
2 2 -1
2 2 -1
2 2 -1
2 2 -1
2 2 -1
2 2 -1
