14 0.984896 0.2962 215.072 831.404
7 0.978053 20.6162 527.199 620.238
8 0.975144 2.56803 463.839 386.477
10 0.973264 -42.3342 245.062 459.46
11 0.9569 65.2411 686.771 212.814
6 0.973659 -14.725 359.044 158.579
