272.088 73.3877 0.19179 0.113403 0.00585179 0.00362933
284.983 81.2004 0.38685 0.234381 0.00627122 0.00381537
304.846 93.2524 0.59589 0.36156 0.0060246 0.00392004
331.403 109.66 0.79671 0.492228 0.00605248 0.00440226
364.685 130.959 0.998459 0.63897 0.00675992 0.0034992
405.478 156.146 1.22379 0.75561 0.00621541 0.00427411
453.177 186.082 1.43097 0.89808 0.00640978 0.0084492
507.998 225.406 1.64463 1.17972 -0.00144086 0.0117729
561.218 277.811 1.5966 1.57215 0.00583643 0.0220527
620.923 354.719 1.79115 2.30724 -0.0338678 -0.0172233
642.997 412.49 0.662221 1.73313 -0.0528751 -0.0395289
606.321 426.34 -1.10028 0.4155 0.00228785 0.02223
572.187 464.89 -1.02402 1.1565 5.66895e-05 0.0217368
538.116 527.592 -1.02213 1.88106 -0.0122292 -0.00429027
490.457 585.527 -1.42977 1.73805 -0.0145332 -0.00644936
426.65 636.296 -1.91421 1.52307 0.00424171 0.0217052
367.556 711.182 -1.77282 2.24658 -0.000867618 -0.00307079
307.498 782.656 -1.80174 2.14422 0.0660663 -0.0921582
320.847 751.732 0.40047 -0.92772 0.0130014 0.017145
348.642 739.858 0.83385 -0.356221 -0.00202772 0.0206208
374.184 750.896 0.76626 0.331141 -0.0223425 0.025299
374.901 790.044 0.0215103 1.17444 -0.0149949 -0.0377847
358.957 787.209 -0.47832 -0.0850507 -0.00154709 0.0128502
341.294 798.652 -0.52989 0.34329 2.60925e-05 -0.00880466
323.66 800.312 -0.52902 0.049801 0.00315 -0.00169113
309.526 800.093 -0.42402 -0.00656982 0.00099451 -0.000906317
296.497 798.867 -0.39087 -0.0367804 0.0182772 0.000842432
303.776 798.577 0.21837 -0.00869934 1.71112e-05 -0.000948669
311.074 797.233 0.21894 -0.0403217 -0.00142202 0.00151567
316.792 797.573 0.17154 0.0102008 -0.000840591 0.000807275
321.576 798.81 0.14352 0.03711 -8.18756e-05 -0.000543604
326.269 799.443 0.140791 0.0189899 5.21576e-05 0.000207916
331.02 800.307 0.142529 0.0259204 -0.000540857 -0.000467139
335.17 800.652 0.124501 0.0103491 -0.000400534 -0.000802771
338.875 800.105 0.11115 -0.0164099 -0.000260101 0.000225
342.291 799.808 0.10248 -0.00890991 -0.000433768 -6.7511e-05
345.225 799.436 0.0880206 -0.0111603 -0.000654318 0.000100854
347.432 799.176 0.06621 -0.00779846 -0.000155704 -2.79602e-05
349.466 798.885 0.0610199 -0.00873047 -0.000761407 0.000312286
350.654 798.941 0.0356396 0.00167908 -0.000173694 -9.17358e-05
351.649 798.895 0.0298499 -0.00137878 -0.00021058 0.00015293
352.41 799.019 0.0228305 0.00371887 -0.000393311 3.33435e-05
352.734 799.18 0.00972015 0.00483032 -0.000279904 5.39978e-05
352.747 799.401 0.000390015 0.00663025 -0.000195309 -0.000187207
352.543 799.414 -0.0061203 0.000390015 -0.000341098 0.000119696
351.96 799.56 -0.0174902 0.00437988 2.2522e-05 0.000107117
351.402 799.825 -0.0167395 0.00795044 -0.000325827 -0.000172815
350.482 799.898 -0.0276004 0.00218994 0.000322229 6.56982e-05
349.92 800.044 -0.0168594 0.00437988 8.00629e-05 -4.76807e-05
349.447 800.137 -0.0141907 0.00279053 -4.49615e-05 0.000149359
348.924 800.396 -0.0156894 0.00776917 -2.71912e-06 -0.000234888
348.398 800.394 -0.01578 -6.04248e-05 -7.29218e-05 8.10242e-05
347.791 800.482 -0.0182108 0.00264038 -0.000157462 -1.88965e-05
347.009 800.549 -0.0234595 0.0020105 -0.000234915 -9.99207e-05
345.966 800.505 -0.03129 -0.00132019 0.000521109 0
345.502 800.461 -0.0139197 -0.00132019 -0.000550827 0.000194403
344.426 800.633 -0.0322806 0.00515991 0.000630917 -0.00015661
344.051 800.631 -0.01125 -6.04248e-05 -1.26068e-05 1.62048e-05
343.662 800.647 -0.0116702 0.000479736 -0.000116977 -4.40552e-05
343.143 800.614 -0.0155695 -0.00098877 0.00045629 -5.43823e-06
343.131 800.575 -0.000359802 -0.00117004 -2.74658e-08 -1.53259e-05
343.119 800.519 -0.000360718 -0.00168091 -5.39703e-05 0.000175562
343.047 800.658 -0.00215973 0.00417114 8.81927e-05 -0.000113434
343.073 800.671 0.000780029 0.000390015 -4.05121e-05 -7.02026e-05
343.054 800.606 -0.000570374 -0.00195007 2.9718e-05 0.000126013
343.068 800.681 0.000420227 0.00225037 9.00879e-06 -0.000257465
343.092 800.47 0.00072052 -0.00633179 -5.04272e-05 0.000328601
343.06 800.624 -0.000960388 0.00462158 6.48193e-05 -0.000133264
343.1 800.63 0.00120026 0.000179443 4.76807e-05 4.32312e-05
343.193 800.684 0.00278961 0.00162048 -0.00021058 -9.09119e-05
343.052 800.637 -0.00422974 -0.00140991 0.000199786 -8.19031e-05
343.133 800.499 0.00242981 -0.00414001 -0.000126892 0.000175507
343.073 800.556 -0.00179993 0.00171021 6.47919e-05 -2.9718e-05
343.085 800.58 0.000359802 0.000719604 3.60077e-05 -9.00879e-06
343.137 800.594 0.00156006 0.000419312 -3.68866e-05 -6.56982e-05
343.148 800.535 0.000330505 -0.00177063 -3.51288e-05 0.000117059
343.12 800.606 -0.000840454 0.00213135 0 0
