1 -0 0 -0 1 0
1 -0 0 -0 1 0
1 -0 0 -0 1 0
1 -0 0 -0 1 0
1 -0 0 -0 1 0
1 -0 0 -0 1 0
1 -0 0 -0 1 0
1 -0 0 -0 1 0
1 -0 0 -0 1 0
1 -0 0 -0 1 0
1 -0 0 -0 1 0
1 -0 0 -0 1 0
1 -0 0 -0 1 0
1 -0 0 -0 1 0
1 -0 0 -0 1 0
1 -2.84658e-07 0.000259019 1.97874e-07 1 0.000124221
1 -2.84658e-07 0.000259019 1.97874e-07 1 0.000124221
1 -2.84658e-07 0.000259019 1.97874e-07 1 0.000124221
1 -2.84658e-07 0.000259019 1.97874e-07 1 0.000124221
1 -2.84658e-07 0.000259019 1.97874e-07 1 0.000124221
1 -2.84658e-07 0.000259019 1.97874e-07 1 0.000124221
1 -2.84658e-07 0.000259019 1.97874e-07 1 0.000124221
1 -2.84658e-07 0.000259019 1.97874e-07 1 0.000124221
1 -2.84658e-07 0.000259019 1.97874e-07 1 0.000124221
1 -2.84658e-07 0.000259019 1.97874e-07 1 0.000124221
1 -2.84658e-07 0.000259019 1.97874e-07 1 0.000124221
1 -2.84658e-07 0.000259019 1.97874e-07 1 0.000124221
1 -2.84658e-07 0.000259019 1.97874e-07 1 0.000124221
1 -2.84658e-07 0.000259019 1.97874e-07 1 0.000124221
1 -2.84658e-07 0.000259019 1.97874e-07 1 0.000124221
1 -2.84658e-07 0.000259019 1.97874e-07 1 0.000124221
1 -2.84658e-07 0.000259019 1.97874e-07 1 0.000124221
0.999994 -0.00382179 1.53706 0.00381852 0.999991 -1.46554
0.999994 -0.00382186 1.53706 0.00381859 0.999991 -1.46554
0.999994 -0.00418149 1.68145 0.00417896 0.999989 -1.5848
0.999994 -0.00418685 1.68175 0.00418459 0.999989 -1.58532
0.999994 -0.00420378 1.68473 0.00420245 0.999989 -1.592
0.999994 -0.00420382 1.68473 0.00420249 0.999989 -1.592
0.999994 -0.00420831 1.68467 0.00420632 0.999989 -1.59251
0.999994 -0.00420831 1.68467 0.00420632 0.999989 -1.59251
0.999994 -0.00420853 1.68466 0.00420658 0.999989 -1.59253
0.999994 -0.00421218 1.68436 0.00420994 0.999989 -1.59377
0.999994 -0.00421218 1.68436 0.00420994 0.999989 -1.59377
0.999994 -0.00421218 1.68436 0.00420994 0.999989 -1.59377
0.999994 -0.00421219 1.68436 0.00420995 0.999989 -1.59377
0.999994 -0.00421248 1.68431 0.00421032 0.999989 -1.59387
0.999994 -0.00421248 1.68431 0.00421032 0.999989 -1.59387
0.999994 -0.00421248 1.68431 0.00421032 0.999989 -1.59387
0.999994 -0.0042156 1.68173 0.00421266 0.999989 -1.5984
0.999994 -0.0042156 1.68173 0.00421266 0.999989 -1.5984
0.999994 -0.0042156 1.68173 0.00421266 0.999989 -1.5984
0.999994 -0.00421656 1.68169 0.00421331 0.999989 -1.59854
0.999994 -0.00421824 1.68166 0.00421517 0.999989 -1.59861
0.999994 -0.00421825 1.68166 0.00421517 0.999989 -1.59861
0.999994 -0.00421854 1.68166 0.00421547 0.99999 -1.59861
0.999994 -0.00422106 1.68093 0.00421725 0.99999 -1.60028
0.999994 -0.00422106 1.68093 0.00421725 0.99999 -1.60028
0.999994 -0.00422106 1.68093 0.00421725 0.99999 -1.60028
0.999994 -0.00422106 1.68093 0.00421725 0.99999 -1.60028
0.999994 -0.004222 1.6809 0.00421799 0.99999 -1.6004
0.999994 -0.004222 1.6809 0.00421799 0.99999 -1.6004
0.999994 -0.004222 1.6809 0.00421799 0.99999 -1.6004
0.999994 -0.004222 1.6809 0.00421799 0.99999 -1.6004
0.999994 -0.004222 1.6809 0.00421799 0.99999 -1.6004
0.999994 -0.004222 1.6809 0.00421799 0.99999 -1.6004
0.999994 -0.00422217 1.6809 0.00421815 0.99999 -1.6004
0.999994 -0.00422335 1.68092 0.00421938 0.99999 -1.60045
0.999994 -0.00422693 1.68081 0.00422231 0.99999 -1.60395
0.999994 -0.00422693 1.68081 0.00422231 0.99999 -1.60395
0.999994 -0.00422693 1.68081 0.00422231 0.99999 -1.60395
0.999994 -0.00422693 1.68081 0.00422231 0.99999 -1.60395
0.999995 -0.00422925 1.68085 0.00422431 0.999991 -1.60398
0.999995 -0.00422925 1.68085 0.00422431 0.999991 -1.60398
0.999995 -0.00422925 1.68085 0.00422431 0.999991 -1.60398
0.999995 -0.00423168 1.68071 0.00422665 0.999991 -1.60513
0.999995 -0.00423168 1.68071 0.00422665 0.999991 -1.60513
0.999995 -0.00423172 1.68071 0.00422668 0.999991 -1.60513
0.999995 -0.00423172 1.68071 0.00422668 0.999991 -1.60513
0.999995 -0.00423245 1.68072 0.0042275 0.999991 -1.60519
0.999995 -0.00423248 1.68072 0.00422753 0.999991 -1.60519
0.999995 -0.00423248 1.68073 0.00422753 0.999991 -1.60519
0.999995 -0.00423248 1.68073 0.00422753 0.999991 -1.60519
0.999996 -0.00423807 1.68085 0.00423242 0.999992 -1.60642
0.999996 -0.00423807 1.68085 0.00423242 0.999992 -1.60642
0.999996 -0.00424431 1.68187 0.00423946 0.999991 -1.60634
0.999996 -0.00424431 1.68187 0.00423946 0.999991 -1.60634
0.999996 -0.00424399 1.67725 0.00423839 0.999992 -1.61274
0.999996 -0.00425683 1.67899 0.00425081 0.999992 -1.61821
0.999996 -0.00425805 1.67903 0.00425191 0.999992 -1.61822
0.999996 -0.00427022 1.68337 0.00426408 0.999992 -1.62118
0.999996 -0.00427412 1.68271 0.0042676 0.999993 -1.62436
0.999997 -0.00427435 1.68267 0.00426762 0.999993 -1.62445
0.999997 -0.00427447 1.68267 0.00426773 0.999993 -1.62445
0.999997 -0.00427461 1.68263 0.00426778 0.999993 -1.62452
0.999997 -0.00427423 1.68238 0.0042675 0.999994 -1.6248
0.999997 -0.00427423 1.68238 0.0042675 0.999994 -1.6248
0.999997 -0.00427459 1.68236 0.00426787 0.999993 -1.62485
0.999998 -0.00429123 1.68469 0.00428406 0.999994 -1.63894
0.999997 -0.00429607 1.68602 0.00428962 0.999994 -1.64101
0.999997 -0.00429658 1.68602 0.00429011 0.999994 -1.64101
0.999997 -0.0042973 1.68603 0.00429081 0.999994 -1.64101
0.999997 -0.0042973 1.68603 0.00429081 0.999994 -1.64101
0.999997 -0.0042973 1.68603 0.00429081 0.999994 -1.64101
0.999997 -0.00428741 1.68122 0.00428038 0.999995 -1.65135
0.999997 -0.00428741 1.68122 0.00428038 0.999995 -1.65135
0.999996 -0.00440611 1.74853 0.00439816 0.999995 -1.64976
0.999996 -0.00440603 1.74853 0.00439809 0.999995 -1.64976
0.999997 -0.00429985 1.66879 0.00429243 0.999995 -1.65754
0.999998 -0.00430027 1.66879 0.00429238 0.999995 -1.65754
0.999998 -0.00436661 1.70932 0.00435818 0.999995 -1.66537
0.999998 -0.00436535 1.70882 0.00435775 0.999996 -1.66557
0.999998 -0.00433578 1.68749 0.00432869 0.999996 -1.66829
0.999998 -0.00433578 1.68749 0.00432869 0.999996 -1.66829
0.999998 -0.00433578 1.68749 0.00432869 0.999996 -1.66829
0.999998 -0.00433578 1.68749 0.00432869 0.999996 -1.66829
0.999998 -0.00433594 1.68749 0.00432881 0.999996 -1.66829
0.999998 -0.00433594 1.68749 0.00432881 0.999996 -1.66829
0.999998 -0.00433708 1.68766 0.00432998 0.999996 -1.6682
0.999998 -0.00433708 1.68766 0.00432998 0.999996 -1.6682
0.999998 -0.00433956 1.69016 0.00433224 0.999996 -1.6691
0.999999 -0.00431072 1.67111 0.00430374 0.999997 -1.67302
1 -0.00430741 1.6696 0.00430067 0.999997 -1.67417
0.999999 -0.00436687 1.70558 0.0043603 0.999996 -1.67674
0.999999 -0.00436687 1.70558 0.0043603 0.999996 -1.67674
