673.743 220.549 0.04836 0.3117 -0.0060399 -0.0079722
668.644 222.081 -0.15297 0.0459599 -0.00295378 0.000684009
660.263 224.373 -0.251429 0.0687602 -0.00197913 0.000123294
649.683 226.802 -0.317401 0.07287 -0.00243177 0.000329398
636.401 229.597 -0.398459 0.0838499 -0.00293401 0.000860408
619.859 233.348 -0.49626 0.11253 -0.00219963 0.000183582
600.873 237.303 -0.569581 0.11865 -0.00156237 0.000364513
580.151 241.663 -0.62166 0.1308 -0.00351541 0.00116461
555.523 247.317 -0.73884 0.16962 -0.00170552 0.000233089
529 253.23 -0.79569 0.17739 -0.0032076 0.000713713
498.913 259.936 -0.90261 0.20118 -0.00247769 0.000451799
466.073 267.144 -0.9852 0.21624 -0.00140669 0.000401385
431.67 274.798 -1.03209 0.22962 -0.00319414 0.000777612
393.718 283.316 -1.13856 0.25554 -0.00222207 1.88965e-05
353.297 291.855 -1.21263 0.25617 -0.00236522 0.000896402
310.248 301.39 -1.29147 0.28605 -0.00298798 0.00715229
263.879 318.872 -1.39107 0.52446 0.00263069 0.0166815
220.433 354.889 -1.30338 1.08051 0.0342387 -0.0363285
