1 -0 0 -0 1 0
1 -0 0 -0 1 0
1 -0 0 -0 1 0
1 -0 0 -0 1 0
1 -0 0 -0 1 0
1 -0 0 -0 1 0
1 -0 0 -0 1 0
1 -0 0 -0 1 0
1 -0 0 -0 1 0
1 -0 0 -0 1 0
1 -0 0 -0 1 0
1 -0 0 -0 1 0
1 -0 0 -0 1 0
1 -0 0 -0 1 0
1 -0 0 -0 1 0
1 -0 0 -0 1 0
1 -0 0 -0 1 0
1 -0 0 -0 1 0
1 -3.47921e-08 -1.14378e-05 2.93723e-07 1 -1.74929e-05
1 -3.47921e-08 -1.14378e-05 2.93723e-07 1 -1.74929e-05
1 -3.47921e-08 -1.14378e-05 2.93723e-07 1 -1.74929e-05
1 -3.47921e-08 -1.14378e-05 2.93723e-07 1 -1.74929e-05
1 -3.47921e-08 -1.14378e-05 2.93723e-07 1 -1.74929e-05
