14 0.982136 -0.164263 214.859 832.461
7 0.977715 15.9213 522.728 608.385
8 0.974745 2.26904 463.954 387.066
10 0.972852 -42.4866 243.621 461.361
11 0.956585 65.1117 689.798 213.462
6 0.973455 -14.4453 358.914 159.282
