1 0 59
58 57 3
56 55 5
54 53 7
52 51 9
50 49 11
48 47 13
46 45 16
44 43 18
42 41 20
40 39 22
38 37 24
36 35 26
34 33 28
33 32 29
32 31 29
16 45 17
17 44 18
18 43 19
19 42 20
20 41 21
21 40 22
22 39 23
23 38 24
24 37 25
25 36 26
26 35 27
27 34 28
28 33 29
29 31 30
15 46 16
14 47 15
35 34 27
13 47 14
37 36 25
12 48 13
39 38 23
11 49 12
41 40 21
10 50 11
43 42 19
9 51 10
45 44 17
8 52 9
47 46 15
7 53 8
49 48 12
6 54 7
51 50 10
5 55 6
53 52 8
4 56 5
55 54 6
3 57 4
57 56 4
2 58 3
59 58 2
1 59 2
