55 54 6
53 52 9
52 51 10
51 50 11
50 49 12
48 47 15
47 46 16
46 45 17
45 44 18
44 43 19
43 42 19
41 40 21
40 39 22
39 38 23
15 47 16
16 46 17
18 17 45
19 18 44
20 19 42
21 20 41
22 21 40
23 22 39
24 23 38
25 35 26
26 33 27
27 32 28
29 31 30
29 28 31
24 36 25
28 32 31
27 33 32
26 34 33
26 35 34
25 36 35
24 37 36
24 38 37
14 48 15
13 49 14
42 41 20
12 49 13
11 50 12
10 51 11
9 52 10
8 53 9
7 53 8
49 48 14
6 54 7
5 55 6
4 56 5
3 56 4
54 53 7
2 57 3
56 55 5
1 58 2
3 57 56
2 58 57
1 0 59
58 1 59
