1 -0 0 -0 1 0
1 -0 0 -0 1 0
1 -0 0 -0 1 0
1 -0 0 -0 1 0
1 -0 0 -0 1 0
1 -0 0 -0 1 0
1 -0 0 -0 1 0
1 -0 0 -0 1 0
1 -0 0 -0 1 0
1 -0 0 -0 1 0
1 -0 0 -0 1 0
1 -0 0 -0 1 0
1 -0 0 -0 1 0
1 -0 0 -0 1 0
1 -0 0 -0 1 0
1 -0 0 -0 1 0
1 -0 0 -0 1 0
1 -0 0 -0 1 0
1 -0 0 -0 1 0
1 -0 0 -0 1 0
1 -0 0 -0 1 0
1 -0 0 -0 1 0
1 -0 0 -0 1 0
1 -0 0 -0 1 0
1 -0 0 -0 1 0
1 -0 0 -0 1 0
1 -0 0 -0 1 0
1 -0 0 -0 1 0
1 -0 0 -0 1 0
1 -0 0 -0 1 0
1 -0 0 -0 1 0
1 -0 0 -0 1 0
1 -0 0 -0 1 0
1 -0 0 -0 1 0
1 -0 0 -0 1 0
1 -0 0 -0 1 0
1 -1.32449e-06 5.5365e-06 1.38772e-06 1 -3.12352e-05
1 -1.32449e-06 5.5365e-06 1.38772e-06 1 -3.12352e-05
