1 -1.26728e-06 -1.48344e-05 1.3918e-06 1 9.64444e-05
1 -1.26728e-06 -1.48344e-05 1.3918e-06 1 9.64444e-05
1 -1.26728e-06 -1.48344e-05 1.3918e-06 1 9.64444e-05
1 -1.26728e-06 -1.48344e-05 1.3918e-06 1 9.64444e-05
1 -1.26728e-06 -1.48344e-05 1.3918e-06 1 9.64444e-05
1 -1.26728e-06 -1.48344e-05 1.3918e-06 1 9.64444e-05
