1 2.24244e-06 0.000179424 -2.15721e-06 1 0.000256836
1 2.24244e-06 0.000179424 -2.15721e-06 1 0.000256836
1 2.24244e-06 0.000179424 -2.15721e-06 1 0.000256836
1 2.24244e-06 0.000179424 -2.15721e-06 1 0.000256836
1 2.24244e-06 0.000179424 -2.15721e-06 1 0.000256836
1 2.24244e-06 0.000179424 -2.15721e-06 1 0.000256836
1 2.24244e-06 0.000179424 -2.15721e-06 1 0.000256836
1 2.24244e-06 0.000179424 -2.15721e-06 1 0.000256836
