14 0.998944 15.9501 512.228 924.041
11 0.995586 -30.0994 251.23 798.035
6 1.0004 11.1616 532.732 631.871
8 0.997246 -40.7468 237.71 488.145
2 0.998089 8.63225 536.609 329.541
0 0.999623 -3.08801 370.646 161.538
