1 -0 0 -0 1 0
1 -0 0 -0 1 0
1 -0 0 -0 1 0
1 -1.12983e-06 9.70471e-05 1.15571e-06 1 1.93418e-05
1 -1.12983e-06 9.70471e-05 1.15571e-06 1 1.93418e-05
1 -1.12983e-06 9.70471e-05 1.15571e-06 1 1.93418e-05
1 -1.12983e-06 9.70471e-05 1.15571e-06 1 1.93418e-05
1 -1.12983e-06 9.70471e-05 1.15571e-06 1 1.93418e-05
1 -1.12983e-06 9.70471e-05 1.15571e-06 1 1.93418e-05
1 -1.12983e-06 9.70471e-05 1.15571e-06 1 1.93418e-05
1 -1.12983e-06 9.70471e-05 1.15571e-06 1 1.93418e-05
1 -1.12983e-06 9.70471e-05 1.15571e-06 1 1.93418e-05
1 -1.12983e-06 9.70471e-05 1.15571e-06 1 1.93418e-05
1 -1.12983e-06 9.70471e-05 1.15571e-06 1 1.93418e-05
1 -1.12983e-06 9.70471e-05 1.15571e-06 1 1.93418e-05
1 -1.12983e-06 9.70471e-05 1.15571e-06 1 1.93418e-05
1 -1.12983e-06 9.70471e-05 1.15571e-06 1 1.93418e-05
1 -1.12983e-06 9.70471e-05 1.15571e-06 1 1.93418e-05
1 -1.12983e-06 9.70471e-05 1.15571e-06 1 1.93418e-05
1 -1.12983e-06 9.70471e-05 1.15571e-06 1 1.93418e-05
1 -1.12983e-06 9.70471e-05 1.15571e-06 1 1.93418e-05
1 -1.12983e-06 9.70471e-05 1.15571e-06 1 1.93418e-05
1 -1.12983e-06 9.70471e-05 1.15571e-06 1 1.93418e-05
1 -1.12983e-06 9.70471e-05 1.15571e-06 1 1.93418e-05
1 -1.12983e-06 9.70471e-05 1.15571e-06 1 1.93418e-05
1 -1.12983e-06 9.70471e-05 1.15571e-06 1 1.93418e-05
1 -1.12983e-06 9.70471e-05 1.15571e-06 1 1.93418e-05
1 -1.12983e-06 9.70471e-05 1.15571e-06 1 1.93418e-05
1 -1.12983e-06 9.70471e-05 1.15571e-06 1 1.93418e-05
1 -1.12983e-06 9.70471e-05 1.15571e-06 1 1.93418e-05
1 -1.12983e-06 9.70471e-05 1.15571e-06 1 1.93418e-05
1 -1.12983e-06 9.70471e-05 1.15571e-06 1 1.93418e-05
1 -1.12983e-06 9.70471e-05 1.15571e-06 1 1.93418e-05
1 -1.12983e-06 9.70471e-05 1.15571e-06 1 1.93418e-05
1 -1.12983e-06 9.70471e-05 1.15571e-06 1 1.93418e-05
1 -1.12983e-06 9.70471e-05 1.15571e-06 1 1.93418e-05
1 -1.12983e-06 9.70471e-05 1.15571e-06 1 1.93418e-05
1 -1.12983e-06 9.70471e-05 1.15571e-06 1 1.93418e-05
1 -1.12983e-06 9.70471e-05 1.15571e-06 1 1.93418e-05
1 -1.12983e-06 9.70471e-05 1.15571e-06 1 1.93418e-05
0.999991 -0.00390417 1.74945 0.00389835 0.999994 -1.40069
0.999977 -0.00617287 2.48696 0.00615301 0.999989 -2.32753
0.999978 -0.00617554 2.48675 0.00615597 0.999989 -2.32778
0.999967 -0.00723916 2.81027 0.00721874 0.999983 -2.73253
0.999965 -0.00734766 2.82401 0.00732752 0.999982 -2.77496
0.999966 -0.00735026 2.82395 0.00732966 0.999982 -2.77517
0.999966 -0.00738009 2.82452 0.00735646 0.999983 -2.78625
0.999966 -0.00738011 2.82452 0.00735648 0.999983 -2.78625
0.999965 -0.00738414 2.82451 0.00736046 0.999984 -2.78628
0.999965 -0.00738543 2.82451 0.00736137 0.999984 -2.78633
0.999965 -0.00738547 2.82451 0.0073614 0.999984 -2.78633
0.999965 -0.00738547 2.82451 0.0073614 0.999984 -2.78633
0.999966 -0.00738547 2.82451 0.0073614 0.999984 -2.78633
0.999966 -0.00738557 2.82447 0.00736146 0.999984 -2.78641
0.999966 -0.0073863 2.82445 0.00736186 0.999985 -2.78645
0.999966 -0.00738701 2.8234 0.00736218 0.999985 -2.78752
0.999966 -0.00738736 2.82338 0.00736249 0.999985 -2.78756
0.999966 -0.00738772 2.82333 0.00736296 0.999985 -2.78761
0.999966 -0.00738772 2.82333 0.00736296 0.999985 -2.78761
0.999967 -0.00739147 2.82263 0.0073655 0.999985 -2.78888
0.999968 -0.00740075 2.81086 0.00737663 0.999985 -2.79466
0.999968 -0.00740075 2.81086 0.00737663 0.999985 -2.79466
0.999968 -0.00740075 2.81086 0.00737663 0.999985 -2.79466
0.999968 -0.00740077 2.81086 0.00737666 0.999985 -2.79466
0.999968 -0.00740078 2.81086 0.00737666 0.999985 -2.79466
0.999968 -0.00740139 2.81086 0.00737723 0.999985 -2.79466
0.999967 -0.00740205 2.81081 0.00737802 0.999986 -2.79472
0.999968 -0.00740253 2.81078 0.00737849 0.999986 -2.79478
0.999968 -0.00740276 2.81016 0.00737889 0.999986 -2.79516
0.999968 -0.00740826 2.80955 0.00738372 0.999986 -2.79692
0.999968 -0.00740852 2.80955 0.00738364 0.999986 -2.79692
0.999968 -0.00740831 2.80955 0.00738343 0.999986 -2.79692
0.999968 -0.00740831 2.80955 0.00738343 0.999986 -2.79692
0.999967 -0.00740951 2.80944 0.00738339 0.999988 -2.79701
0.999967 -0.00740935 2.80943 0.00738341 0.999988 -2.79703
0.999967 -0.00740935 2.80943 0.00738341 0.999988 -2.79703
0.999967 -0.00740936 2.80943 0.00738342 0.999988 -2.79703
0.999967 -0.00740936 2.80943 0.00738342 0.999988 -2.79703
0.999967 -0.00740936 2.80943 0.00738342 0.999988 -2.79703
0.999967 -0.00740937 2.80943 0.00738343 0.999988 -2.79703
0.999967 -0.00740937 2.80943 0.00738343 0.999988 -2.79703
0.999967 -0.00740942 2.8094 0.00738348 0.999988 -2.79707
0.999967 -0.00740942 2.8094 0.00738348 0.999988 -2.79707
0.999967 -0.00740942 2.8094 0.00738348 0.999988 -2.79707
0.999966 -0.00741463 2.80834 0.00738874 0.99999 -2.79886
0.999966 -0.00741434 2.80825 0.00738835 0.999991 -2.79896
0.999966 -0.00741429 2.80816 0.00738822 0.999991 -2.79907
0.999967 -0.00741583 2.8075 0.00738946 0.999991 -2.79983
0.999967 -0.00741583 2.8075 0.00738946 0.999991 -2.79983
0.999967 -0.00741583 2.8075 0.00738946 0.999991 -2.79983
0.999967 -0.00741583 2.8075 0.00738946 0.999991 -2.79983
0.999967 -0.00741583 2.8075 0.00738946 0.999991 -2.79983
0.999967 -0.00741583 2.8075 0.00738946 0.999991 -2.79983
0.999967 -0.00741583 2.8075 0.00738946 0.999991 -2.79983
0.999966 -0.00741523 2.80748 0.00738927 0.999991 -2.79984
0.999966 -0.00741595 2.80748 0.00738957 0.999991 -2.7999
0.999966 -0.00741574 2.80748 0.00738935 0.999991 -2.7999
0.999966 -0.00741507 2.80746 0.00738964 0.999991 -2.79992
0.999966 -0.00741527 2.80742 0.00738968 0.999991 -2.8
0.999966 -0.00741527 2.80742 0.00738968 0.999992 -2.8
0.999966 -0.00741527 2.80742 0.00738968 0.999992 -2.8
0.999964 -0.00742129 2.80739 0.00739651 0.999993 -2.80007
0.999964 -0.00742129 2.80739 0.00739651 0.999993 -2.80007
0.999964 -0.00742129 2.80739 0.00739651 0.999993 -2.80007
0.999964 -0.00742129 2.80739 0.00739651 0.999993 -2.80007
0.999963 -0.00742032 2.80597 0.00739519 0.999994 -2.80095
0.999963 -0.00742032 2.80597 0.00739519 0.999994 -2.80095
0.999963 -0.00742034 2.80597 0.0073952 0.999994 -2.80095
0.999963 -0.00741978 2.80592 0.00739496 0.999994 -2.80101
0.999963 -0.00741976 2.80592 0.00739495 0.999994 -2.80101
0.999962 -0.00741825 2.80571 0.00739458 0.999995 -2.8013
0.999962 -0.00741956 2.80538 0.0073963 0.999995 -2.80166
0.999962 -0.00741956 2.80538 0.0073963 0.999995 -2.80166
0.999962 -0.00741956 2.80538 0.0073963 0.999995 -2.80166
0.999962 -0.00741956 2.80538 0.0073963 0.999995 -2.80166
0.999962 -0.00741971 2.80538 0.00739645 0.999995 -2.80166
0.999963 -0.00742175 2.8043 0.0073977 0.999995 -2.80313
0.999963 -0.00742204 2.80426 0.00739776 0.999995 -2.8032
0.999963 -0.00742208 2.80419 0.00739791 0.999995 -2.80329
0.999964 -0.00742279 2.80417 0.00739814 0.999995 -2.80335
0.999964 -0.00742279 2.80417 0.00739814 0.999996 -2.80335
0.999964 -0.00742242 2.80408 0.00739773 0.999996 -2.80345
0.999964 -0.00742281 2.80408 0.00739803 0.999996 -2.80345
0.999964 -0.00742236 2.80402 0.0073975 0.999997 -2.80352
0.999964 -0.0074224 2.80397 0.00739772 0.999997 -2.80358
0.999964 -0.00742195 2.80388 0.00739769 0.999997 -2.80368
0.999964 -0.00742195 2.80388 0.00739769 0.999997 -2.80368
0.999964 -0.00742193 2.80388 0.00739767 0.999997 -2.80368
0.999964 -0.0074227 2.80389 0.00739838 0.999997 -2.80368
0.999964 -0.00742384 2.80386 0.00739872 0.999999 -2.80373
0.999964 -0.00742384 2.80386 0.00739872 0.999999 -2.80373
0.999964 -0.00742693 2.80214 0.00740149 0.999999 -2.80578
0.999964 -0.00742693 2.80214 0.00740149 0.999999 -2.80578
0.999964 -0.00743379 2.80089 0.00740717 1 -2.80769
0.999964 -0.00743379 2.80089 0.00740717 1 -2.80769
0.999964 -0.00743433 2.80088 0.00740786 1 -2.80771
0.999964 -0.00743408 2.80082 0.00740769 1 -2.80779
0.999964 -0.00743621 2.80063 0.00740878 1 -2.80834
0.999964 -0.00743415 2.79964 0.00740724 1 -2.80878
0.999964 -0.00743518 2.79958 0.00740833 1 -2.80886
0.999964 -0.00743518 2.79958 0.00740833 1 -2.80886
0.999964 -0.00743516 2.79958 0.00740831 1 -2.80886
0.999964 -0.00743533 2.79943 0.00740855 1 -2.80904
0.999965 -0.00743533 2.79943 0.00740855 1 -2.80904
0.999964 -0.00743568 2.79943 0.00740926 1 -2.8091
0.999964 -0.00743568 2.79943 0.00740926 1 -2.8091
0.999964 -0.00743568 2.79943 0.00740926 1 -2.8091
0.999964 -0.00743568 2.79943 0.00740926 1 -2.8091
0.999964 -0.00743568 2.79943 0.00740926 1 -2.8091
0.999964 -0.00743568 2.79943 0.00740926 1 -2.8091
