1 -0 0 -0 1 0
1 -0 0 -0 1 0
1 -0 0 -0 1 0
1 -0 0 -0 1 0
1 -0 0 -0 1 0
1 -0 0 -0 1 0
1 -0 0 -0 1 0
1 -0 0 -0 1 0
1 -0 0 -0 1 0
1 -0 0 -0 1 0
1 -0 0 -0 1 0
1 -0 0 -0 1 0
1 -0 0 -0 1 0
1 -0 0 -0 1 0
1 -0 0 -0 1 0
1 -0 0 -0 1 0
1 -0 0 -0 1 0
1 -0 0 -0 1 0
1 -0 0 -0 1 0
1 -0 0 -0 1 0
1 -0 0 -0 1 0
1 5.70275e-07 0.0003459 -6.61722e-07 1 0.000318964
1 5.70275e-07 0.0003459 -6.61722e-07 1 0.000318964
1 5.70275e-07 0.0003459 -6.61722e-07 1 0.000318964
1 5.70275e-07 0.0003459 -6.61722e-07 1 0.000318964
1 5.70275e-07 0.0003459 -6.61722e-07 1 0.000318964
1 5.70275e-07 0.0003459 -6.61722e-07 1 0.000318964
1 5.70275e-07 0.0003459 -6.61722e-07 1 0.000318964
1 5.70275e-07 0.0003459 -6.61722e-07 1 0.000318964
1 5.70275e-07 0.0003459 -6.61722e-07 1 0.000318964
1 5.70275e-07 0.0003459 -6.61722e-07 1 0.000318964
1 5.70275e-07 0.0003459 -6.61722e-07 1 0.000318964
1 5.70275e-07 0.0003459 -6.61722e-07 1 0.000318964
1 5.70275e-07 0.0003459 -6.61722e-07 1 0.000318964
1 5.70275e-07 0.0003459 -6.61722e-07 1 0.000318964
1 5.70275e-07 0.0003459 -6.61722e-07 1 0.000318964
1 5.70275e-07 0.0003459 -6.61722e-07 1 0.000318964
1 5.70275e-07 0.0003459 -6.61722e-07 1 0.000318964
1 5.70275e-07 0.0003459 -6.61722e-07 1 0.000318964
1 5.70275e-07 0.0003459 -6.61722e-07 1 0.000318964
1 5.70275e-07 0.0003459 -6.61722e-07 1 0.000318964
1 5.70275e-07 0.0003459 -6.61722e-07 1 0.000318964
1 5.70275e-07 0.0003459 -6.61722e-07 1 0.000318964
1 5.70275e-07 0.0003459 -6.61722e-07 1 0.000318964
1 5.70275e-07 0.0003459 -6.61722e-07 1 0.000318964
1 5.70275e-07 0.0003459 -6.61722e-07 1 0.000318964
1 5.70275e-07 0.0003459 -6.61722e-07 1 0.000318964
1 5.70275e-07 0.0003459 -6.61722e-07 1 0.000318964
1 5.70275e-07 0.0003459 -6.61722e-07 1 0.000318964
1 5.70275e-07 0.0003459 -6.61722e-07 1 0.000318964
1 5.70275e-07 0.0003459 -6.61722e-07 1 0.000318964
1 5.70275e-07 0.0003459 -6.61722e-07 1 0.000318964
1 5.70275e-07 0.0003459 -6.61722e-07 1 0.000318964
1 5.70275e-07 0.0003459 -6.61722e-07 1 0.000318964
1 5.70275e-07 0.0003459 -6.61722e-07 1 0.000318964
1 5.70275e-07 0.0003459 -6.61722e-07 1 0.000318964
1 5.70275e-07 0.0003459 -6.61722e-07 1 0.000318964
1 5.70275e-07 0.0003459 -6.61722e-07 1 0.000318964
1 5.70275e-07 0.0003459 -6.61722e-07 1 0.000318964
1 5.70275e-07 0.0003459 -6.61722e-07 1 0.000318964
1 5.70275e-07 0.0003459 -6.61722e-07 1 0.000318964
1 5.70275e-07 0.0003459 -6.61722e-07 1 0.000318964
1 5.70275e-07 0.0003459 -6.61722e-07 1 0.000318964
1 5.70275e-07 0.0003459 -6.61722e-07 1 0.000318964
1 5.70275e-07 0.0003459 -6.61722e-07 1 0.000318964
1 5.70275e-07 0.0003459 -6.61722e-07 1 0.000318964
1 5.70275e-07 0.0003459 -6.61722e-07 1 0.000318964
1 5.70275e-07 0.0003459 -6.61722e-07 1 0.000318964
1 5.70275e-07 0.0003459 -6.61722e-07 1 0.000318964
1 5.70275e-07 0.0003459 -6.61722e-07 1 0.000318964
1 5.70275e-07 0.0003459 -6.61722e-07 1 0.000318964
1 5.70275e-07 0.0003459 -6.61722e-07 1 0.000318964
1 5.70275e-07 0.0003459 -6.61722e-07 1 0.000318964
1 5.70275e-07 0.0003459 -6.61722e-07 1 0.000318964
1 5.70275e-07 0.0003459 -6.61722e-07 1 0.000318964
1 5.70275e-07 0.0003459 -6.61722e-07 1 0.000318964
1 5.70275e-07 0.0003459 -6.61722e-07 1 0.000318964
1 5.70275e-07 0.0003459 -6.61722e-07 1 0.000318964
1 5.70275e-07 0.0003459 -6.61722e-07 1 0.000318964
1 5.70275e-07 0.0003459 -6.61722e-07 1 0.000318964
1 5.70275e-07 0.0003459 -6.61722e-07 1 0.000318964
1 5.70275e-07 0.0003459 -6.61722e-07 1 0.000318964
1 5.70275e-07 0.0003459 -6.61722e-07 1 0.000318964
1 5.70275e-07 0.0003459 -6.61722e-07 1 0.000318964
1 5.70275e-07 0.0003459 -6.61722e-07 1 0.000318964
0.999992 0.00269233 -1.60454 -0.00269409 1 2.13279
0.999992 0.00269191 -1.60454 -0.00269368 1 2.13279
0.999992 0.00269188 -1.60454 -0.00269365 1 2.13279
0.999992 0.0026204 -1.54428 -0.0026233 1.00001 2.18786
0.999992 0.00262021 -1.54428 -0.00262311 1.00001 2.18786
0.999992 0.00262021 -1.54428 -0.00262311 1.00001 2.18786
0.999992 0.00260066 -1.53648 -0.00260399 1.00001 2.19448
0.999992 0.00259974 -1.53648 -0.00260307 1.00001 2.19448
0.999993 0.00259658 -1.53629 -0.00260003 1.00001 2.1948
0.999993 0.00259658 -1.53629 -0.00260003 1.00001 2.1948
0.999993 0.00259658 -1.53629 -0.00260003 1.00001 2.1948
0.999993 0.00259658 -1.53629 -0.00260003 1.00001 2.1948
0.999993 0.00259658 -1.53629 -0.00260003 1.00001 2.1948
0.999993 0.00259658 -1.53629 -0.00260003 1.00001 2.1948
0.999993 0.00259658 -1.53629 -0.00260003 1.00001 2.1948
0.999993 0.00259658 -1.53629 -0.00260003 1.00001 2.1948
0.999993 0.00259658 -1.53629 -0.00260003 1.00001 2.1948
0.999993 0.00259658 -1.53629 -0.00260003 1.00001 2.1948
0.999993 0.00259658 -1.53629 -0.00260003 1.00001 2.1948
0.999993 0.00259658 -1.53629 -0.00260003 1.00001 2.1948
0.999993 0.00259658 -1.53629 -0.00260003 1.00001 2.1948
0.999993 0.00259658 -1.53629 -0.00260003 1.00001 2.1948
0.999993 0.00259658 -1.53629 -0.00260003 1.00001 2.1948
0.999993 0.00259658 -1.53629 -0.00260003 1.00001 2.1948
0.999993 0.00259658 -1.53629 -0.00260003 1.00001 2.1948
0.999993 0.00259658 -1.53629 -0.00260003 1.00001 2.1948
0.999993 0.00259658 -1.53629 -0.00260003 1.00001 2.1948
0.999993 0.00259658 -1.53629 -0.00260003 1.00001 2.1948
0.999993 0.00259658 -1.53629 -0.00260003 1.00001 2.1948
0.999993 0.00259658 -1.53629 -0.00260003 1.00001 2.1948
0.999993 0.00259658 -1.53629 -0.00260003 1.00001 2.1948
0.999993 0.00259658 -1.53629 -0.00260003 1.00001 2.1948
0.999993 0.00259658 -1.53629 -0.00260003 1.00001 2.1948
0.999993 0.00259658 -1.53629 -0.00260003 1.00001 2.1948
0.999993 0.00259658 -1.53629 -0.00260003 1.00001 2.1948
0.999993 0.00259658 -1.53629 -0.00260003 1.00001 2.1948
0.999993 0.00259658 -1.53629 -0.00260003 1.00001 2.1948
0.999993 0.00259658 -1.53629 -0.00260003 1.00001 2.1948
0.999993 0.00259658 -1.53629 -0.00260003 1.00001 2.1948
0.999993 0.00259658 -1.53629 -0.00260003 1.00001 2.1948
0.999993 0.00259658 -1.53629 -0.00260003 1.00001 2.1948
0.999993 0.00259658 -1.53629 -0.00260003 1.00001 2.1948
0.999993 0.00259658 -1.53629 -0.00260003 1.00001 2.1948
0.999993 0.00259658 -1.53629 -0.00260003 1.00001 2.1948
0.999993 0.00259658 -1.53629 -0.00260003 1.00001 2.1948
0.999993 0.00259658 -1.53629 -0.00260003 1.00001 2.1948
0.999993 0.00259658 -1.53629 -0.00260003 1.00001 2.1948
0.999993 0.00259658 -1.53629 -0.00260003 1.00001 2.1948
0.999993 0.00259658 -1.53629 -0.00260003 1.00001 2.1948
0.999993 0.00259658 -1.53629 -0.00260003 1.00001 2.1948
0.999993 0.00259658 -1.53629 -0.00260003 1.00001 2.1948
0.999993 0.00259658 -1.53629 -0.00260003 1.00001 2.1948
0.999993 0.00259658 -1.53629 -0.00260003 1.00001 2.1948
0.999993 0.00259658 -1.53629 -0.00260003 1.00001 2.1948
0.999993 0.00259658 -1.53629 -0.00260003 1.00001 2.1948
0.999993 0.00259658 -1.53629 -0.00260003 1.00001 2.1948
0.999993 0.00259658 -1.53629 -0.00260003 1.00001 2.1948
0.999993 0.00259658 -1.53629 -0.00260003 1.00001 2.1948
0.999993 0.00259658 -1.53629 -0.00260003 1.00001 2.1948
0.999993 0.00259658 -1.53629 -0.00260003 1.00001 2.1948
0.999993 0.00259658 -1.53629 -0.00260003 1.00001 2.1948
0.999993 0.00259658 -1.53629 -0.00260003 1.00001 2.1948
0.999993 0.00259658 -1.53629 -0.00260003 1.00001 2.1948
0.999993 0.00259658 -1.53629 -0.00260003 1.00001 2.1948
0.999993 0.00259658 -1.53629 -0.00260003 1.00001 2.1948
