1 -0 0 -0 1 0
1 -0 0 -0 1 0
1 -0 0 -0 1 0
1 -0 0 -0 1 0
1 -0 0 -0 1 0
1 -0 0 -0 1 0
1 -0 0 -0 1 0
1 -0 0 -0 1 0
1 -0 0 -0 1 0
1 -0 0 -0 1 0
1 -0 0 -0 1 0
1 -0 0 -0 1 0
1 -0 0 -0 1 0
1 -0 0 -0 1 0
1 -0 0 -0 1 0
1 -0 0 -0 1 0
1 -0 0 -0 1 0
1 -0 0 -0 1 0
1 -0 0 -0 1 0
1 -0 0 -0 1 0
1 -0 0 -0 1 0
1 -0 0 -0 1 0
1 -0 0 -0 1 0
1 -0 0 -0 1 0
1 -0 0 -0 1 0
1 -3.61082e-05 -0.0863177 3.60305e-05 1 0.135976
0.999997 0.000948073 -0.933774 -0.000947024 1 1.53073
0.999998 0.000938015 -0.93438 -0.000937031 1 1.53042
0.999997 0.000969861 -0.942436 -0.000968509 1 1.54275
0.999998 0.00108728 -0.925068 -0.00108591 1 1.57795
0.999998 0.00108728 -0.925068 -0.00108591 1 1.57795
0.999998 0.00107944 -0.909379 -0.00107835 1 1.58809
0.999998 0.00107944 -0.909379 -0.00107835 1 1.58809
0.999997 0.00104695 -0.882828 -0.00104536 1 1.59282
0.999997 0.00104695 -0.882828 -0.00104536 1 1.59282
0.999997 0.00104695 -0.882828 -0.00104536 1 1.59282
0.999997 0.00104686 -0.882829 -0.00104527 1 1.59282
0.999997 0.00104686 -0.882829 -0.00104527 1 1.59282
0.999997 0.00104686 -0.882829 -0.00104527 1 1.59282
0.999997 0.00104686 -0.882829 -0.00104527 1 1.59282
0.999997 0.00104686 -0.882829 -0.00104527 1 1.59282
0.999998 0.00104265 -0.879478 -0.00104123 1 1.5913
0.999997 0.00104193 -0.879333 -0.00104022 1 1.59137
0.999997 0.00104181 -0.879333 -0.0010401 1 1.59137
0.999997 0.00104027 -0.879334 -0.00103851 1 1.59136
0.999997 0.00104027 -0.879334 -0.00103851 1 1.59136
0.999997 0.00103646 -0.87923 -0.00103485 1 1.59133
0.999997 0.00102997 -0.871631 -0.00102936 1.00001 1.5874
0.999997 0.00102982 -0.871631 -0.00102921 1.00001 1.5874
0.999997 0.00102982 -0.871631 -0.00102921 1.00001 1.5874
0.999997 0.00102982 -0.871631 -0.00102921 1.00001 1.5874
0.999997 0.0010254 -0.871639 -0.00102483 1.00001 1.58739
0.999997 0.00102534 -0.871639 -0.00102477 1.00001 1.58739
0.999997 0.00102528 -0.871639 -0.00102471 1.00001 1.58739
0.999997 0.00102528 -0.871639 -0.00102471 1.00001 1.58739
0.999997 0.00102528 -0.871639 -0.00102471 1.00001 1.58739
0.999997 0.00102528 -0.871639 -0.00102471 1.00001 1.58739
0.999998 0.00102611 -0.871453 -0.00102538 1.00001 1.58756
0.999998 0.00102611 -0.871453 -0.00102538 1.00001 1.58756
0.999998 0.00102727 -0.871174 -0.00102662 1.00001 1.5875
0.999998 0.00102727 -0.871174 -0.00102662 1.00001 1.5875
0.999998 0.00102804 -0.864272 -0.00102679 1.00001 1.58661
0.999998 0.0010257 -0.864208 -0.00102448 1.00001 1.58649
0.999998 0.00102262 -0.864163 -0.00102139 1.00001 1.58621
0.999998 0.00102262 -0.864163 -0.00102139 1.00001 1.58621
0.999997 0.00100802 -0.858154 -0.00100605 1.00001 1.58811
0.999998 0.000993408 -0.844861 -0.000991936 1.00001 1.585
