0.999976 0.00578679 -2.12898 -0.00578787 0.999987 2.02245
0.999977 0.00624249 -2.08535 -0.0062452 0.999986 2.18369
0.999977 0.00626279 -2.08274 -0.00626565 0.999986 2.18878
0.999977 0.00626279 -2.08274 -0.00626565 0.999986 2.18878
0.999977 0.00626279 -2.08274 -0.00626566 0.999986 2.18878
0.999977 0.00626438 -2.08274 -0.0062673 0.999986 2.18878
0.999977 0.00632105 -2.06072 -0.00632457 0.999986 2.19781
0.999976 0.00638842 -2.0428 -0.00639219 0.999986 2.21254
0.999976 0.00638842 -2.0428 -0.00639219 0.999986 2.21254
0.999977 0.00653697 -2.02865 -0.00654428 0.999987 2.26601
0.999978 0.0065417 -2.02834 -0.00654964 0.999987 2.26663
0.999978 0.00654183 -2.02834 -0.00654977 0.999987 2.26663
0.999978 0.00660885 -2.02425 -0.00661676 0.999987 2.29303
0.999978 0.00662832 -2.02036 -0.00663622 0.999987 2.29616
0.999978 0.00667683 -2.01452 -0.00668566 0.999987 2.31522
0.999978 0.00668544 -2.01369 -0.00669591 0.999988 2.31666
0.999979 0.00670396 -2.01237 -0.00671689 0.999988 2.32056
0.999979 0.00670509 -2.01236 -0.00671759 0.999988 2.32057
0.999979 0.00670515 -2.01236 -0.00671766 0.999988 2.32057
0.999978 0.00674649 -2.01823 -0.00675889 0.999988 2.34519
0.999978 0.00675142 -2.01807 -0.00676367 0.999988 2.34538
0.999978 0.00675142 -2.01807 -0.00676367 0.999988 2.34538
0.999978 0.00675142 -2.01807 -0.00676367 0.999988 2.34538
0.999978 0.00675142 -2.01807 -0.00676367 0.999988 2.34538
0.999978 0.00675142 -2.01807 -0.00676367 0.999988 2.34538
0.999978 0.00675142 -2.01807 -0.00676367 0.999988 2.34538
0.999978 0.00675142 -2.01807 -0.00676367 0.999988 2.34538
0.999978 0.00675142 -2.01807 -0.00676367 0.999988 2.34538
0.999978 0.00675142 -2.01807 -0.00676367 0.999988 2.34538
0.999978 0.00679817 -2.0119 -0.00681028 0.999988 2.36729
0.999978 0.00679819 -2.0119 -0.00681031 0.999988 2.36729
0.999978 0.00679886 -2.01182 -0.00681213 0.999988 2.36838
0.999978 0.00682295 -2.01075 -0.00683813 0.999989 2.37819
0.999978 0.00685333 -2.01145 -0.00686822 0.999988 2.39357
0.999978 0.00685516 -2.01126 -0.00687054 0.999988 2.39398
0.999978 0.00689819 -2.00918 -0.00691445 0.999989 2.41121
0.999978 0.00689819 -2.00918 -0.00691445 0.999989 2.41121
0.999978 0.0069141 -2.0078 -0.0069316 0.999989 2.4175
0.999978 0.0069141 -2.0078 -0.0069316 0.999989 2.4175
0.999978 0.00691797 -2.00777 -0.00693481 0.999989 2.41757
0.999978 0.00692064 -2.00749 -0.00693745 0.999989 2.41779
0.999978 0.00692211 -2.00731 -0.00693942 0.999989 2.41814
0.999978 0.00692211 -2.00731 -0.00693942 0.999989 2.41814
0.999977 0.00693823 -2.00693 -0.00695565 0.999989 2.42463
0.999977 0.00693824 -2.00693 -0.00695565 0.999989 2.42463
0.999977 0.00694217 -2.0066 -0.00695993 0.999989 2.42579
0.999977 0.00694217 -2.0066 -0.00695993 0.999989 2.42579
0.999977 0.00694217 -2.0066 -0.00695993 0.999989 2.42579
0.999977 0.00694217 -2.0066 -0.00695993 0.999989 2.42579
0.999977 0.00694217 -2.0066 -0.00695993 0.999989 2.42579
0.999977 0.00694217 -2.0066 -0.00695993 0.999989 2.42579
0.999977 0.00694217 -2.0066 -0.00695993 0.999989 2.42579
0.999977 0.00694217 -2.0066 -0.00695993 0.999989 2.42579
0.999977 0.00694228 -2.0066 -0.00696005 0.999989 2.42579
0.999977 0.00694228 -2.0066 -0.00696005 0.999989 2.42579
0.999977 0.00694228 -2.0066 -0.00696005 0.999989 2.42579
0.999977 0.00694228 -2.0066 -0.00696005 0.999989 2.42579
0.999977 0.00694228 -2.0066 -0.00696005 0.999989 2.42579
0.999977 0.00694228 -2.0066 -0.00696005 0.999989 2.42579
0.999977 0.00694228 -2.0066 -0.00696005 0.999989 2.42579
0.999977 0.00698238 -1.99892 -0.00699934 0.999988 2.4321
0.999977 0.00698238 -1.99892 -0.00699934 0.999988 2.4321
0.999977 0.00700689 -1.99796 -0.00702445 0.999988 2.44549
0.999977 0.00702387 -1.99388 -0.00704289 0.999989 2.45123
0.999977 0.00702399 -1.99388 -0.00704301 0.999989 2.45123
0.999977 0.00702388 -1.99388 -0.00704293 0.999989 2.45123
0.999977 0.00702411 -1.99385 -0.00704308 0.999988 2.45153
0.999977 0.00702411 -1.99385 -0.00704308 0.999988 2.45153
0.999977 0.00709051 -2.00187 -0.00710968 0.999988 2.49351
0.999977 0.00710008 -2.00179 -0.00711897 0.999987 2.49358
0.999977 0.00710684 -2.001 -0.00712577 0.999987 2.49436
0.999977 0.00712169 -1.99949 -0.00714291 0.999988 2.4982
0.999977 0.0071229 -1.99949 -0.00714368 0.999989 2.4982
0.999977 0.0071229 -1.99949 -0.00714368 0.999989 2.4982
0.999976 0.00714554 -1.99763 -0.00716706 0.999989 2.50615
0.999976 0.00714559 -1.99763 -0.00716712 0.999989 2.50615
0.999976 0.00714559 -1.99763 -0.00716712 0.999989 2.50615
0.999975 0.0071469 -1.99742 -0.00716853 0.999989 2.50651
0.999975 0.0071485 -1.99742 -0.00716968 0.999989 2.50652
0.999975 0.0071485 -1.99742 -0.00716968 0.999989 2.50652
0.999975 0.00714863 -1.99742 -0.00716981 0.999989 2.50652
0.999975 0.00714863 -1.99742 -0.00716981 0.999989 2.50652
0.999975 0.00715042 -1.99731 -0.00717169 0.999989 2.5067
0.999975 0.00715042 -1.99731 -0.00717169 0.999989 2.5067
0.999975 0.00715042 -1.99731 -0.00717169 0.999989 2.5067
0.999975 0.00715765 -1.99642 -0.00717968 0.99999 2.51074
0.999975 0.00715775 -1.99642 -0.00717978 0.99999 2.51074
0.999975 0.00716719 -1.99529 -0.00718999 0.999991 2.51244
0.999975 0.00717361 -1.99394 -0.00719673 0.999991 2.51555
0.999975 0.00717515 -1.99371 -0.00719846 0.999991 2.5159
0.999975 0.00718113 -1.99285 -0.0072052 0.999991 2.51888
0.999975 0.00718416 -1.99241 -0.00720777 0.999991 2.51928
0.999975 0.00718416 -1.99241 -0.00720777 0.999991 2.51928
0.999975 0.00719535 -1.98986 -0.0072197 0.999992 2.52461
0.999975 0.00719711 -1.98962 -0.00722143 0.999992 2.52489
0.999975 0.00719711 -1.98962 -0.00722143 0.999992 2.52489
0.999975 0.00719916 -1.98961 -0.00722318 0.999992 2.5249
0.999975 0.00721114 -1.98757 -0.00723629 0.999993 2.52889
0.999974 0.00721199 -1.98757 -0.00723635 0.999993 2.52889
