0.999981 -0.00647989 1.62631 0.00647148 0.999983 0.755118
0.999981 -0.00652148 1.63971 0.00651285 0.999983 0.749707
0.999981 -0.00652071 1.63987 0.00651211 0.999983 0.7497
0.999982 -0.00651798 1.64004 0.00650937 0.999983 0.749694
0.999981 -0.00652057 1.64178 0.00651193 0.999983 0.74929
0.999981 -0.00652438 1.64178 0.00651538 0.999983 0.749295
0.999981 -0.00655615 1.66489 0.00654618 0.999982 0.739552
0.999981 -0.00662312 1.70108 0.00661272 0.999982 0.709868
0.999981 -0.00665767 1.69668 0.00664686 0.999982 0.710256
0.999981 -0.00665765 1.69668 0.00664684 0.999982 0.710256
0.999981 -0.00665728 1.70076 0.00664611 0.999982 0.708509
0.999981 -0.00665621 1.70151 0.00664506 0.999982 0.708331
0.999981 -0.00665621 1.70151 0.00664506 0.999982 0.708331
0.999982 -0.00665622 1.70151 0.00664506 0.999982 0.708331
0.999982 -0.00665634 1.70151 0.00664519 0.999982 0.708331
