1 -0 0 -0 1 0
1 -0 0 -0 1 0
1 -0 0 -0 1 0
1 -0 0 -0 1 0
1 -0 0 -0 1 0
1 -0 0 -0 1 0
1 -0 0 -0 1 0
1 -0 0 -0 1 0
1 -0 0 -0 1 0
1 -0 0 -0 1 0
1 -0 0 -0 1 0
1 -0 0 -0 1 0
1 -0 0 -0 1 0
1 -0 0 -0 1 0
1 -0 0 -0 1 0
1 -0 0 -0 1 0
1 -0 0 -0 1 0
1 -0 0 -0 1 0
1 -0 0 -0 1 0
1 -0 0 -0 1 0
1 -0 0 -0 1 0
1 -0 0 -0 1 0
0.999996 2.33544e-05 -1.81385 -2.77672e-05 1 1.49699
0.999996 2.33544e-05 -1.81385 -2.77672e-05 1 1.49699
0.999996 2.33544e-05 -1.81385 -2.77672e-05 1 1.49699
0.999996 2.33544e-05 -1.81385 -2.77672e-05 1 1.49699
0.999996 2.33544e-05 -1.81385 -2.77672e-05 1 1.49699
0.999996 2.33544e-05 -1.81385 -2.77672e-05 1 1.49699
0.999996 2.33544e-05 -1.81385 -2.77672e-05 1 1.49699
0.999996 2.33544e-05 -1.81385 -2.77672e-05 1 1.49699
0.999996 2.33544e-05 -1.81385 -2.77672e-05 1 1.49699
0.999996 2.33544e-05 -1.81385 -2.77672e-05 1 1.49699
0.999996 2.33544e-05 -1.81385 -2.77672e-05 1 1.49699
0.999996 2.33544e-05 -1.81385 -2.77672e-05 1 1.49699
0.999996 2.33544e-05 -1.81385 -2.77672e-05 1 1.49699
0.999996 2.33544e-05 -1.81385 -2.77672e-05 1 1.49699
0.999996 2.33544e-05 -1.81385 -2.77672e-05 1 1.49699
0.999996 2.33544e-05 -1.81385 -2.77672e-05 1 1.49699
0.999996 2.33544e-05 -1.81385 -2.77672e-05 1 1.49699
0.999996 2.33544e-05 -1.81385 -2.77672e-05 1 1.49699
0.999996 2.33544e-05 -1.81385 -2.77672e-05 1 1.49699
0.999996 2.33544e-05 -1.81385 -2.77672e-05 1 1.49699
0.999996 2.33544e-05 -1.81385 -2.77672e-05 1 1.49699
0.999996 2.33544e-05 -1.81385 -2.77672e-05 1 1.49699
0.999996 2.33544e-05 -1.81385 -2.77672e-05 1 1.49699
0.999996 2.33544e-05 -1.81385 -2.77672e-05 1 1.49699
0.999996 2.33544e-05 -1.81385 -2.77672e-05 1 1.49699
0.999996 2.33544e-05 -1.81386 -2.77672e-05 1 1.49699
0.999996 2.33544e-05 -1.81386 -2.77672e-05 1 1.49699
0.999996 2.33544e-05 -1.81386 -2.77672e-05 1 1.49699
0.999996 2.33544e-05 -1.81386 -2.77672e-05 1 1.49699
0.999996 2.33544e-05 -1.81386 -2.77672e-05 1 1.49699
0.999996 2.33544e-05 -1.81386 -2.77672e-05 1 1.49699
0.999996 2.33544e-05 -1.81386 -2.77672e-05 1 1.49699
0.999996 2.33544e-05 -1.81386 -2.77672e-05 1 1.49699
