1 -0 0 -0 1 0
1 -0 0 -0 1 0
1 -0 0 -0 1 0
1 -0 0 -0 1 0
1 -0 0 -0 1 0
1 -0 0 -0 1 0
1 -4.20837e-05 0.000118601 4.2212e-05 1 0.00910524
1 -4.20837e-05 0.000118601 4.2212e-05 1 0.00910524
1 -4.20837e-05 0.000118601 4.2212e-05 1 0.00910524
1 -7.23054e-05 -0.00817091 7.22222e-05 1 0.0563364
1 -7.22082e-05 -0.00817091 7.21251e-05 1 0.0563364
1 -6.48259e-05 -0.00536165 6.47427e-05 1 0.0533563
1 -5.91378e-05 -0.00464845 5.91775e-05 1 0.0525044
1 -5.91378e-05 -0.00464845 5.91775e-05 1 0.0525044
1 -5.91378e-05 -0.00464845 5.91775e-05 1 0.0525044
1 -5.91378e-05 -0.00464845 5.91775e-05 1 0.0525044
1 -5.86466e-05 -0.00464842 5.86864e-05 1 0.0525044
1 -5.86466e-05 -0.00464842 5.86864e-05 1 0.0525044
1 -5.86466e-05 -0.00464842 5.86864e-05 1 0.0525044
1 -5.84378e-05 -0.00464841 5.84776e-05 1 0.0525045
1 -5.84378e-05 -0.00464841 5.84776e-05 1 0.0525045
