1 -0 0 -0 1 0
1 -0 0 -0 1 0
1 -0 0 -0 1 0
1 -0 0 -0 1 0
1 -0 0 -0 1 0
1 -0 0 -0 1 0
1 -0 0 -0 1 0
1 -0 0 -0 1 0
1 -0 0 -0 1 0
1 -0 0 -0 1 0
1 -0 0 -0 1 0
1 -1.61551e-06 0.00015053 1.60343e-06 1 0.000207383
1 -1.61551e-06 0.00015053 1.60343e-06 1 0.000207383
1 -1.61551e-06 0.00015053 1.60343e-06 1 0.000207383
1 -1.61551e-06 0.00015053 1.60343e-06 1 0.000207383
1 -1.61551e-06 0.00015053 1.60343e-06 1 0.000207383
