1 -0 0 -0 1 0
1 -0 0 -0 1 0
1 -0 0 -0 1 0
1 -0 0 -0 1 0
1 -0 0 -0 1 0
1 -0 0 -0 1 0
1 -0 0 -0 1 0
1 -0 0 -0 1 0
1 -0 0 -0 1 0
1 -0 0 -0 1 0
1 -0 0 -0 1 0
1 -0 0 -0 1 0
1 -0 0 -0 1 0
1 -0 0 -0 1 0
1 -0 0 -0 1 0
1 -0 0 -0 1 0
1 -0 0 -0 1 0
1 -0 0 -0 1 0
1 -0 0 -0 1 0
1 -0 0 -0 1 0
1 -0 0 -0 1 0
1 -0 0 -0 1 0
1 -0 0 -0 1 0
1 -0 0 -0 1 0
1 -0 0 -0 1 0
1 -0 0 -0 1 0
1 -0 0 -0 1 0
1 -0 0 -0 1 0
1 -0 0 -0 1 0
1 -0 0 -0 1 0
1 -0 0 -0 1 0
1 -0 0 -0 1 0
1 -0 0 -0 1 0
1 -0 0 -0 1 0
1 -0 0 -0 1 0
1 -0 0 -0 1 0
1 -0 0 -0 1 0
1 -0 0 -0 1 0
1 -0 0 -0 1 0
1 -0 0 -0 1 0
1 -0 0 -0 1 0
1 -0 0 -0 1 0
1 -0 0 -0 1 0
1 -0 0 -0 1 0
1 -0 0 -0 1 0
1 -0 0 -0 1 0
1 -0 0 -0 1 0
1 -0 0 -0 1 0
1 -2.15766e-05 -0.000416732 2.1638e-05 1 -0.00115362
1 -2.15766e-05 -0.000416732 2.1638e-05 1 -0.00115362
1 -2.15766e-05 -0.000416732 2.1638e-05 1 -0.00115362
1 -2.15766e-05 -0.000416732 2.1638e-05 1 -0.00115362
1 -2.15766e-05 -0.000416732 2.1638e-05 1 -0.00115362
1 -2.15766e-05 -0.000416732 2.1638e-05 1 -0.00115362
1 -2.15766e-05 -0.000416732 2.1638e-05 1 -0.00115362
1 -2.15766e-05 -0.000416732 2.1638e-05 1 -0.00115362
1 -2.15766e-05 -0.000416732 2.1638e-05 1 -0.00115362
1 -2.15766e-05 -0.000416732 2.1638e-05 1 -0.00115362
1 -2.15766e-05 -0.000416732 2.1638e-05 1 -0.00115362
1 -2.15766e-05 -0.000416732 2.1638e-05 1 -0.00115362
1 -2.15766e-05 -0.000416732 2.1638e-05 1 -0.00115362
1 -2.15766e-05 -0.000416732 2.1638e-05 1 -0.00115362
1 -2.15766e-05 -0.000416732 2.1638e-05 1 -0.00115362
1 -2.15766e-05 -0.000416732 2.1638e-05 1 -0.00115362
1 -2.15766e-05 -0.000416732 2.1638e-05 1 -0.00115362
1 -2.15766e-05 -0.000416732 2.1638e-05 1 -0.00115362
1 -2.15766e-05 -0.000416732 2.1638e-05 1 -0.00115362
1 -2.15766e-05 -0.000416732 2.1638e-05 1 -0.00115362
1 -2.15766e-05 -0.000416732 2.1638e-05 1 -0.00115362
1 -2.15766e-05 -0.000416732 2.1638e-05 1 -0.00115362
1 -2.15766e-05 -0.000416732 2.1638e-05 1 -0.00115362
1 -2.15766e-05 -0.000416732 2.1638e-05 1 -0.00115362
1 -2.15766e-05 -0.000416732 2.1638e-05 1 -0.00115362
1 -2.15766e-05 -0.000416732 2.1638e-05 1 -0.00115362
1 -2.15766e-05 -0.000416732 2.1638e-05 1 -0.00115362
1 -2.15766e-05 -0.000416732 2.1638e-05 1 -0.00115362
1 -2.15766e-05 -0.000416732 2.1638e-05 1 -0.00115362
1 -2.15766e-05 -0.000416732 2.1638e-05 1 -0.00115362
1 -2.15766e-05 -0.000416732 2.1638e-05 1 -0.00115362
1 -2.15766e-05 -0.000416732 2.1638e-05 1 -0.00115362
1 -2.15766e-05 -0.000416732 2.1638e-05 1 -0.00115362
1 -2.15766e-05 -0.000416732 2.1638e-05 1 -0.00115362
1 -2.15766e-05 -0.000416732 2.1638e-05 1 -0.00115362
1 -2.15766e-05 -0.000416732 2.1638e-05 1 -0.00115362
1 -2.15766e-05 -0.000416732 2.1638e-05 1 -0.00115362
1 -2.15766e-05 -0.000416732 2.1638e-05 1 -0.00115362
1 -2.15766e-05 -0.000416732 2.1638e-05 1 -0.00115362
1 -2.15766e-05 -0.000416732 2.1638e-05 1 -0.00115362
1 -2.15766e-05 -0.000416732 2.1638e-05 1 -0.00115362
1 -2.15766e-05 -0.000416732 2.1638e-05 1 -0.00115362
1 -2.15766e-05 -0.000416732 2.1638e-05 1 -0.00115362
1 -2.15766e-05 -0.000416732 2.1638e-05 1 -0.00115362
