640.499 202.631 -0.178348 0.45528 -0.0129259 0.00946351
620.192 228.322 -0.60921 0.77073 0.00874891 0.018495
609.606 274.563 -0.31758 1.38723 -0.0118935 -0.00405806
585.805 316.295 -0.714031 1.25196 -0.00670589 0.00380967
