0.999954 -0.00785932 3.69286 0.00785857 0.999974 -3.94723
0.999955 -0.00787527 3.67554 0.00787488 0.999973 -3.93307
0.999955 -0.00787592 3.67554 0.00787553 0.999973 -3.93307
0.999955 -0.00787592 3.67554 0.00787553 0.999973 -3.93307
