1 1 0
1 1 0
1 1 0
1 1 0
1 1 0
1 1 0
1 1 0
1 1 0
1 1 0
1 1 0
1 1 0
1 1 0
1 1 0
1 1 0
1 1 0
1 1 0
1 1 0
1 1 0
1 1 0
1 1 0
1 1 0
1 1 0
1 1 0
1 1 0
1 1 0
1 1 0
1 1 0
1 1 0
1 1 0
1 1 0
1 1 0
1 1 0
1 1 0
1 1 0
1 1 0
1 1 0
1 1 0
1 1 0
1 1 0
1 1 0
1 1 0
1 1 0
1 1 0
1 1 0
1 1 0
1 1 0
1 1 0
1 1 0
1 1 0
1 1 0
1 1 0
1 1 0
1 1 0
1 1 0
1 1 0
1 1 0
1 1 0
1 1 0
1 1 0
1 1 0
1 1 0
1 1 0
1 1 0
1 1 0
1 1 0
1 1 0
1 1 0
1 1 0
1 1 0
1 1 0
1 1 0
1 1 0
1 1 0
2 2 -1
2 3 3
2 2 -1
2 1 3
1 1 3
1 1 3
1 1 3
1 1 3
1 1 3
1 1 3
1 1 3
1 1 3
1 1 3
1 1 3
1 1 3
1 1 3
1 1 3
1 1 3
2 2 -1
2 2 -1
3 2 -1
2 1 8
1 1 8
1 1 8
2 2 -1
2 2 -1
2 2 -1
3 2 -1
2 2 -1
3 2 -1
2 2 -1
2 3 7
2 2 -1
2 1 7
1 1 7
1 1 7
1 1 7
1 1 7
1 1 7
1 1 7
1 1 7
1 1 7
1 1 7
1 1 7
1 1 7
1 1 7
2 2 -1
2 2 -1
3 2 -1
2 2 -1
2 2 -1
3 2 -1
2 2 -1
2 2 -1
2 2 -1
2 2 -1
2 2 -1
2 2 -1
3 2 -1
2 2 -1
2 2 -1
2 2 -1
2 2 -1
2 2 -1
2 1 14
1 1 14
1 1 14
1 1 14
