14 0.99595 0.839544 636.454 927.7
8 0.998328 0.779257 525.388 655.855
10 0.978719 87.0472 750.028 683.145
12 0.994758 -29.3489 256.801 506.784
5 0.997714 17.0827 545.267 324.168
9 0.997188 -6.16693 551.661 165.062
13 1.00099 -5.46111 257.231 119.932
